{
	"groups": [
		{
			"keys": "checkbox_select_disabled_png,checkbox_select_down_png,checkbox_select_up_png,checkbox_unselect_png,selected_png,border_png,header_png,radiobutton_select_disabled_png,radiobutton_select_down_png,radiobutton_select_up_png,radiobutton_unselect_png,roundthumb_png,thumb_png,track_png,tracklight_png,handle_png,off_png,on_png,button_down_png,button_up_png,thumb_pb_png,track_pb_png,track_sb_png,bg_jpg,egret_icon_png,description_json,btnLiiShow_png,btnLiiReady_png,q0_png,q1_png,q2_png,q3_png,q4_png,user_head_bg_png,user_head_bg_v_png,record_yxn_btn_back_png,other_bg_png,desktop_btn_sit_png,Coin_png,record_yxn_btn_share_png,fanhuidating_png,border_h_png,border_v_png,xiazhubg_png,niu_0_png,niu_1_png,niu_2_png,niu_3_png,niu_4_png,niu_5_png,niu_6_png,niu_7_png,niu_8_png,niu_9_png,niu_10_png,niu_11_png,niu_12_png,niu_13_png,niu_14_png,niu_15_png,niu_16_png,niu_17_png,desktop_bgbtn_png,BgBlue_png,BgGreen_png,BgOrigin_png,BgRed_png,Black1_png,Black10_png,Black11_png,Black12_png,Black13_png,Black2_png,Black3_png,Black4_png,Black5_png,Black6_png,Black7_png,Black8_png,Black9_png,Flower1_png,Flower10_png,Flower11_png,Flower12_png,Flower13_png,Flower2_png,Flower3_png,Flower4_png,Flower5_png,Flower6_png,Flower7_png,Flower8_png,Flower9_png,JokerBlack_png,JokerColor_png,PokerTag_png,Red1_png,Red10_png,Red11_png,Red12_png,Red13_png,Red2_png,Red3_png,Red4_png,Red5_png,Red6_png,Red7_png,Red8_png,Red9_png,Square1_png,Square10_png,Square11_png,Square12_png,Square13_png,Square2_png,Square3_png,Square4_png,Square5_png,Square6_png,Square7_png,Square8_png,Square9_png,Tex_titlefrient_png,Tex_titleselfmember_png,Tex_titlehismember_png,NiuNiuView5812_png,tuoguan_check1_png,tuoguan_check1x_png,tuoguan_check2_png,tuoguan_check2x_png,tuoguan_checkbg_png,item_bg_png,sjhg_line_png,game_person_propbg_png,setted_1_png,desktop_btn_tishibeishu_png,desktop_btn_extens_s_png,desktop_btn_extens_x_png,desktop_img_diban_png,desktop_btn_jiesanfangjian_png,desktop_btn_jiesanfangjian_d_png,desktop_btn_jiesanfangjian_p_png,desktop_btn_likaifangjian_png,desktop_btn_likaifangjian_d_png,desktop_btn_likaifangjian_d_p_png,desktop_btn_shangjuhuigu_png,desktop_btn_shangjuhuigu_p_png,desktop_btn_youxishezhi_png,desktop_btn_youxishezhi_p_png,set_btn_slliding_png,set_btn_voice_off_png,set_btn_voice_on_png,set_slliding_bottom_png,set_slliding_top_png,desktop_btn_extens_s2_png,desktop_btn_extens_x2_png,desktop_btn_jiesanfangjian2_png,desktop_btn_jiesanfangjian_d2_png,desktop_btn_jiesanfangjian_p2_png,desktop_btn_likaifangjian3_png,desktop_btn_likaifangjian22_png,desktop_btn_likaifangjian_d2_png,desktop_btn_likaifangjian_d_p2_png,desktop_btn_shangjuhuigu2_png,desktop_btn_shangjuhuigu_p2_png,desktop_btn_youxishezhi2_png,desktop_btn_youxishezhi_p2_png,desktop_img_diban2_png,set_btn_slliding2_png,set_btn_voice_off2_png,set_btn_voice_on2_png,set_slliding_bottom2_png,set_slliding_top2_png,head_temp_png,Tex_clubgudingdelete_png,hall_img_labb_png,head_ketuizhu_png,multi_5_png,multi_16_png,multi_20_png,multi_9_png,multi_17_png,multi_6_png,multi_15_png,multi_2_png,multi_10_png,multi_4_png,multi_8_png,multi_3_png,multi_11_png,multi_19_png,multi_13_png,multi_14_png,multi_7_png,multi_12_png,multi_18_png,multi_1_png,NiuNiuView682_png,NiuNiuView665_png,yonghuxieyi_png,Tex_titlerank_png,prepare_png,NiuNiuView669_png,NiuNiuView6692_png,BgOrigin_b_png,Black10_b_png,Black11_b_png,Black12_b_png,Black13_b_png,Black1_b_png,Black2_b_png,Black3_b_png,Black4_b_png,Black5_b_png,Black6_b_png,Black7_b_png,Black8_b_png,Black9_b_png,Flower10_b_png,Flower11_b_png,Flower12_b_png,Flower13_b_png,Flower1_b_png,Flower2_b_png,Flower3_b_png,Flower4_b_png,Flower5_b_png,Flower6_b_png,Flower7_b_png,Flower8_b_png,Flower9_b_png,Red10_b_png,Red11_b_png,Red12_b_png,Red13_b_png,Red1_b_png,Red2_b_png,Red3_b_png,Red4_b_png,Red5_b_png,Red6_b_png,Red7_b_png,Red8_b_png,Red9_b_png,Square10_b_png,Square11_b_png,Square12_b_png,Square13_b_png,Square1_b_png,Square2_b_png,Square3_b_png,Square4_b_png,Square5_b_png,Square6_b_png,Square7_b_png,Square8_b_png,Square9_b_png,btnLiiCuo_png,btnLiiCuo2_png,q1_black2_png,q2_black2_png,q3_black2_png,q4_black2_png,BgOrigin_b2_png,Black10_b2_png,Black11_b2_png,Black12_b2_png,Black13_b2_png,Black1_b2_png,Black2_b2_png,Black3_b2_png,Black4_b2_png,Black5_b2_png,Black6_b2_png,Black7_b2_png,Black8_b2_png,Black9_b2_png,Flower10_b2_png,Flower11_b2_png,Flower12_b2_png,Flower13_b2_png,Flower1_b2_png,Flower2_b2_png,Flower3_b2_png,Flower4_b2_png,Flower5_b2_png,Flower6_b2_png,Flower7_b2_png,Flower8_b2_png,Flower9_b2_png,Red10_b2_png,Red11_b2_png,Red12_b2_png,Red13_b2_png,Red1_b2_png,Red2_b2_png,Red3_b2_png,Red4_b2_png,Red5_b2_png,Red6_b2_png,Red7_b2_png,Red8_b2_png,Red9_b2_png,Square10_b2_png,Square11_b2_png,Square12_b2_png,Square13_b2_png,Square1_b2_png,Square2_b2_png,Square3_b2_png,Square4_b2_png,Square5_b2_png,Square6_b2_png,Square7_b2_png,Square8_b2_png,Square9_b2_png,NiuNiuView644_png,NiuNiuView6442_png,charge_png,rmb500_png,rmb100_png,rmb200_png,rmb1000_png,Tex_btnreduce_png,chongshu_png,NiuNiuView2392_png,Tex_btn0_png,Tex_btn1_png,Tex_btn2_png,Tex_btn3_png,Tex_btn4_png,Tex_btn5_png,Tex_btn6_png,Tex_btn7_png,Tex_btn8_png,Tex_btn9_png,Tex_btnclear_png,down_png",
			"name": "preload"
		},
		{
			"keys": "3_logo_png,NiuNiuView606_png,NiuNiuView607_png,Tex_BgLogin_png,Tex_LogoTitle_png,Tex_LogoTitle2_png,niuniu_png,bar12_png,bar22_png",
			"name": "login"
		},
		{
			"keys": "NiuNiuView009_png,NiuNiuView031_png1,NiuNiuView032_png,NiuNiuView044_png1,NiuNiuView050_png1,NiuNiuView053_png,NiuNiuView054_png,NiuNiuView066_png,NiuNiuView071_png,NiuNiuView077_png,NiuNiuView087_png,NiuNiuView106_png,NiuNiuView137_png,NiuNiuView154_png,NiuNiuView157_png,NiuNiuView173_png,NiuNiuView184_png,NiuNiuView201_png1,NiuNiuView225_png,NiuNiuView241_png,NiuNiuView282_png,NiuNiuView283_png,NiuNiuView290_png,NiuNiuView336_png,NiuNiuView382_png,NiuNiuView413_png,NiuNiuView431_png,NiuNiuView432_png,NiuNiuView442_png1,NiuNiuView443_png1,NiuNiuView444_png1,NiuNiuView469_png,NiuNiuView471_png,NiuNiuView481_png1,NiuNiuView517_png,NiuNiuView570_png1,NiuNiuView594_png,NiuNiuView601_png1,NiuNiuView605_png,NiuNiuView625_png1,NiuNiuView680_png1,NiuNiuView690_png1,Tex_BgChalou_png,Tex_ChalouBottomBg_png,Tex_ChalouTopBg_png,Tex_HeadShade_png,Tex_Iconboss_png,Tex_Iconmanger_png,Tex_RedPoint_png,Tex_SearchInputBg_png,Tex_cDeskBg_png,Tex_inputbg2_png,Tex_scorebg_png,chalouchengyuan_png,hall_zuan1_png,jifenguanli_png,paihangbang_png,zhanji_png,Tex_BgL_png1,NiuNiuView581_png1,NiuNiuView0452_png,NiuNiuView051_png1,NiuNiuView098_png1,NiuNiuView015_png1,teamub_png,Tex_SearchInputBtn_png,Tex_lchoose_png,Tex_lunchoose_png,jifeng_png,NiuNiuView670_png,Tex_BgChalou2_png,Tex_titlefrient_png,Tex_titlehismember_png,Tex_titleselfmember_png,Tex_clubgudingdelete_png,Tex_titlerank_png,state_in_png,state_wait_png,charge_png,rmb100_png,rmb1000_png,rmb200_png,rmb500_png",
			"name": "teaHouse"
		},
		{
			"keys": "NiuNiuView008_png,NiuNiuView012_png,NiuNiuView018_png,NiuNiuView021_png,NiuNiuView028_png,NiuNiuView029_png,NiuNiuView031_png1,NiuNiuView035_png,NiuNiuView036_png,NiuNiuView042_png,NiuNiuView044_png1,NiuNiuView045_png,NiuNiuView046_png,NiuNiuView050_png1,NiuNiuView051_png,NiuNiuView055_png,NiuNiuView081_png,NiuNiuView084_png,NiuNiuView089_png,NiuNiuView098_png,NiuNiuView122_png,NiuNiuView150_png,NiuNiuView158_png,NiuNiuView172_png,NiuNiuView200_png,NiuNiuView2002_png,NiuNiuView2003_png,NiuNiuView2006_png,NiuNiuView2007_png,NiuNiuView201_png1,NiuNiuView2010_png,NiuNiuView2011_png,NiuNiuView2012_png,NiuNiuView2013_png,NiuNiuView2016_png,NiuNiuView2017_png,NiuNiuView2022_png,NiuNiuView2026_png,NiuNiuView227_png,NiuNiuView233_png,NiuNiuView234_png,NiuNiuView235_png,NiuNiuView267_png,NiuNiuView292_png,NiuNiuView308_png,NiuNiuView331_png,NiuNiuView405_png,NiuNiuView418_png,NiuNiuView427_png,NiuNiuView433_png,NiuNiuView436_png,NiuNiuView442_png1,NiuNiuView443_png1,NiuNiuView444_png1,NiuNiuView445_png,NiuNiuView465_png,NiuNiuView486_png,NiuNiuView489_png,NiuNiuView491_png,NiuNiuView502_png,NiuNiuView505_png,NiuNiuView526_png,NiuNiuView527_png,NiuNiuView530_png,NiuNiuView532_png,NiuNiuView542_png,NiuNiuView546_png,NiuNiuView547_png,NiuNiuView551_png,NiuNiuView552_png,NiuNiuView555_png,NiuNiuView557_png,NiuNiuView562_png,NiuNiuView564_png,NiuNiuView572_png,NiuNiuView580_png,NiuNiuView588_png,NiuNiuView599_png,NiuNiuView601_png1,NiuNiuView608_png,NiuNiuView613_png,NiuNiuView629_png,NiuNiuView632_png,NiuNiuView639_png,NiuNiuView643_png,NiuNiuView646_png,NiuNiuView654_png,NiuNiuView666_png,NiuNiuView671_png,NiuNiuView680_png1,NiuNiuView690_png1,NiuNiuView691_png,NiuNiuView699_png,Shop_itembg_png,Shop_table_l_png,Shop_table_lc_png,Tex_BgAgentBind_png,Tex_BgHall_png,Tex_BgInfo_png,Tex_BgRecharge_png,Tex_CustomTypeIco1_png,Tex_EveryDaySignBoard_png,Tex_EveryDaySignBoard2_png,Tex_HallBottomBg_png,Tex_ListBarRank_png,Tex_RecordItemBg_png,Tex_RightSelectBg_png,Tex_RoomListItemBg_png,Tex_TopSelectBg_png,Tex_pn_ad_png,Tex_shareBg1_png,bar1_png,bar2_png,chuangjianfangjian_png,common_title_png,create-club_png,create-room_png,hal_title_png,hall_add_png,hall_btn_activity_png,hall_btn_award_png,hall_btn_clublist_png,hall_btn_feed_png,hall_btn_menu_png,hall_btn_message_png,hall_btn_quit_png,hall_btn_record_png,hall_btn_roomlist_png,hall_btn_rule_png,hall_btn_set_png,hall_btn_share_png,hall_btn_shop_png,hall_btn_yaoqing_png,hall_icard_png,hall_id_png,hall_img_headsh_png,hall_img_headsh1_png,hall_img_laba_png,hall_img_labaicon_png,hall_name_png,hall_nan_png,hall_nv_png,hall_red_point_png,hall_selectbg_png,hall_selectchoose_png,hall_zuan1_png,head_kuan_png,im_ScoreAllLose_png,im_ScoreAllWin_png,info_leave1_png,info_leave2_png,info_leave3_png,info_leave4_png,info_leave5_png,info_leave6_png,info_leave7_png,join-game_png,mobile_004_png,mobile_010_png,mobile_015_png,ng_png,record_titlerecord_png,share_title_png,sign_itembg_png,tex_joinroomad_png,tex_joinroombottom_png,title_icard_png,title_kefu_png,title_set_png,xiaoxi_png,NiuNiuView031_png,NiuNiuView044_png,NiuNiuView050_png,NiuNiuView201_png,NiuNiuView442_png,NiuNiuView443_png,NiuNiuView444_png,NiuNiuView601_png,NiuNiuView680_png,NiuNiuView690_png,Tex_EmailListItemBg_png,hall_zuan_png,other_tablechoose_png,other_tablechooser_png,other_tablenormal_png,other_tablenormalr_png,signborad_bg_png",
			"name": "hall"
		},
		{
			"keys": "NiuNiuView015_png,NiuNiuView481_png1,NiuNiuView492_png,NiuNiuView570_png1,NiuNiuView581_png1,NiuNiuView582_png,NiuNiuView625_png1,Tex_BgBig_png,Tex_BgL_png1,Tex_BgS_png",
			"name": "common"
		},
		{
			"keys": "NiuNiuView5572_png,Tex_inputbg22_png,NiuNiuView481_png2",
			"name": "combobox"
		},
		{
			"keys": "GameBg0_png,GameBgXian10_png,GameBgXian6_png,GameBgXian8_png,NiuNiuView0842_png,NiuNiuView1222_png,Tex_RecordItemBg2_png,Tex_RoomListItemBg2_png,im_ScoreAllLose2_png,im_ScoreAllWin2_png,NiuNiuView679_png,NiuNiuView2672_png,btnLiiReady_png,btnLiiShow_png,desktop_btn_sit_png,Coin_png,other_bg_png,q0_png,q1_png,q2_png,q3_png,q4_png,record_yxn_btn_back_png,user_head_bg_png,user_head_bg_v_png,record_yxn_btn_share_png,desktop_btn_start_png,fanhuidating_png,border_h_png,border_v_png,xiazhubg_png,multi0_png,multi1_png,multi2_png,multi3_png,multi4_png,btnLiiLook_png,btnLiiTips_png,desktop_wenzidiban_png,NiuNiuView5812_png,item_bg_png,tuoguan_check1_png,tuoguan_check1x_png,tuoguan_check2_png,tuoguan_check2x_png,tuoguan_checkbg_png,desktop_bgbtn_png,NiuNiuView582_png1,sjhg_line_png,game_person_propbg_png,setted_1_png,desktop_btn_tishibeishu_png,head_temp_png,NiuNiuView587_png,NiuNiuView591_png,desktop_red_bgbtn_png,desktop_red_bgbtn_p_png,tuizhu_bg1_png,tuizhu_bg2_png,tuizhu_bg3_png,tuizhu_bg4_png,tuizhu_bg5_png,NiuNiuView665_png,NiuNiuView677_png,NiuNiuView682_png,head_ketuizhu_png,prepare_png,cancel_trustee_n_png,btnLiiCuo_png,q1_black_png,q2_black_png,q3_black_png,q4_black_png",
			"name": "game"
		},
		{
			"keys": "BgBlue_png,BgGreen_png,BgOrigin_png,BgRed_png,Black1_png,Black10_png,Black11_png,Black12_png,Black13_png,Black2_png,Black3_png,Black4_png,Black5_png,Black6_png,Black7_png,Black8_png,Black9_png,Flower1_png,Flower10_png,Flower11_png,Flower12_png,Flower13_png,Flower2_png,Flower3_png,Flower4_png,Flower5_png,Flower6_png,Flower7_png,Flower8_png,Flower9_png,JokerBlack_png,JokerColor_png,PokerTag_png,Red1_png,Red10_png,Red11_png,Red12_png,Red13_png,Red2_png,Red3_png,Red4_png,Red5_png,Red6_png,Red7_png,Red8_png,Red9_png,Square1_png,Square10_png,Square11_png,Square12_png,Square13_png,Square2_png,Square3_png,Square4_png,Square5_png,Square6_png,Square7_png,Square8_png,Square9_png",
			"name": "poker"
		},
		{
			"keys": "niu_0_png,niu_1_png,niu_10_png,niu_11_png,niu_12_png,niu_13_png,niu_14_png,niu_15_png,niu_16_png,niu_17_png,niu_2_png,niu_3_png,niu_4_png,niu_5_png,niu_6_png,niu_7_png,niu_8_png,niu_9_png,multi_10_png,multi_11_png,multi_12_png,multi_13_png,multi_14_png,multi_15_png,multi_16_png,multi_17_png,multi_18_png,multi_19_png,multi_2_png,multi_20_png,multi_3_png,multi_4_png,multi_5_png,multi_6_png,multi_7_png,multi_8_png,multi_9_png,multi_1_png",
			"name": "cardType"
		},
		{
			"keys": "desktop_btn_extens_s_png,desktop_btn_extens_x_png,desktop_btn_jiesanfangjian_png,desktop_btn_jiesanfangjian_d_png,desktop_btn_jiesanfangjian_p_png,desktop_btn_likaifangjian_png,desktop_btn_likaifangjian_d_png,desktop_btn_likaifangjian_d_p_png,desktop_btn_shangjuhuigu_png,desktop_btn_shangjuhuigu_p_png,desktop_btn_youxishezhi_png,desktop_btn_youxishezhi_p_png,desktop_img_diban_png,desktop_btn_likaifangjian2_png,set_btn_slliding_png,set_btn_voice_off_png,set_btn_voice_on_png,set_slliding_bottom_png,set_slliding_top_png",
			"name": "gameMenu"
		},
		{
			"keys": "Swipe_mp3,bg0_mp3,bg1_mp3,game_bet_mp3,game_bet2_mp3,game_di_mp3,game_fapai_mp3,game_lost_mp3,game_outline_mp3,game_pushbet_mp3,game_sit_mp3,game_start_mp3,game_win_mp3,mf_beer_mp3,mf_bomb_mp3,mf_dog_mp3,mf_hand_mp3,mf_meigui_mp3,mf_tomato_mp3,mf_water_mp3,mf_zhuaji_mp3,nan_niu0_mp3,nan_niu1_mp3,nan_niu10_mp3,nan_niu13_mp3,nan_niu15_mp3,nan_niu2_mp3,nan_niu20_mp3,nan_niu3_mp3,nan_niu30_mp3,nan_niu4_mp3,nan_niu40_mp3,nan_niu5_mp3,nan_niu50_mp3,nan_niu6_mp3,nan_niu60_mp3,nan_niu7_mp3,nan_niu70_mp3,nan_niu8_mp3,nan_niu80_mp3,nan_niu9_mp3,niu_80_mp3,nv_niu0_mp3,nv_niu1_mp3,nv_niu10_mp3,nv_niu13_mp3,nv_niu15_mp3,nv_niu2_mp3,nv_niu20_mp3,nv_niu3_mp3,nv_niu30_mp3,nv_niu4_mp3,nv_niu40_mp3,nv_niu5_mp3,nv_niu50_mp3,nv_niu6_mp3,nv_niu60_mp3,nv_niu7_mp3,nv_niu70_mp3,nv_niu8_mp3,nv_niu80_mp3,nv_niu9_mp3,random_banker_mp3,sfx_button_click_mp3,sfx_button_sure_mp3,sfx_coin_down_mp3,sfx_window_close_mp3,sfx_window_open_mp3,voice_0_0_mp3,voice_0_1_mp3,voice_1_0_mp3,voice_1_1_mp3,voice_2_0_mp3,voice_2_1_mp3,voice_3_0_mp3,voice_3_1_mp3,voice_4_0_mp3,voice_4_1_mp3,voice_5_0_mp3,voice_5_1_mp3,voice_6_0_mp3,voice_6_1_mp3,voice_7_0_mp3,voice_7_1_mp3,voice_8_0_mp3,voice_8_1_mp3,voice_9_0_mp3,voice_9_1_mp3",
			"name": "sound"
		},
		{
			"keys": "BgOrigin_b_png,Black10_b_png,Black11_b_png,Black12_b_png,Black13_b_png,Black1_b_png,Black2_b_png,Black3_b_png,Black4_b_png,Black5_b_png,Black6_b_png,Black7_b_png,Black8_b_png,Black9_b_png,Flower10_b_png,Flower11_b_png,Flower12_b_png,Flower13_b_png,Flower1_b_png,Flower2_b_png,Flower3_b_png,Flower4_b_png,Flower5_b_png,Flower6_b_png,Flower7_b_png,Flower8_b_png,Flower9_b_png,Red10_b_png,Red11_b_png,Red12_b_png,Red13_b_png,Red1_b_png,Red2_b_png,Red3_b_png,Red4_b_png,Red5_b_png,Red6_b_png,Red7_b_png,Red8_b_png,Red9_b_png,Square10_b_png,Square11_b_png,Square12_b_png,Square13_b_png,Square1_b_png,Square2_b_png,Square3_b_png,Square4_b_png,Square5_b_png,Square6_b_png,Square7_b_png,Square8_b_png,Square9_b_png",
			"name": "makeCard"
		}
	],
	"resources": [
		{
			"url": "assets/CheckBox/checkbox_select_disabled.png",
			"type": "image",
			"name": "checkbox_select_disabled_png"
		},
		{
			"url": "assets/CheckBox/checkbox_select_down.png",
			"type": "image",
			"name": "checkbox_select_down_png"
		},
		{
			"url": "assets/CheckBox/checkbox_select_up.png",
			"type": "image",
			"name": "checkbox_select_up_png"
		},
		{
			"url": "assets/CheckBox/checkbox_unselect.png",
			"type": "image",
			"name": "checkbox_unselect_png"
		},
		{
			"url": "assets/ItemRenderer/selected.png",
			"type": "image",
			"name": "selected_png"
		},
		{
			"url": "assets/Panel/border.png",
			"type": "image",
			"name": "border_png"
		},
		{
			"url": "assets/Panel/header.png",
			"type": "image",
			"name": "header_png"
		},
		{
			"url": "assets/RadioButton/radiobutton_select_disabled.png",
			"type": "image",
			"name": "radiobutton_select_disabled_png"
		},
		{
			"url": "assets/RadioButton/radiobutton_select_down.png",
			"type": "image",
			"name": "radiobutton_select_down_png"
		},
		{
			"url": "assets/RadioButton/radiobutton_select_up.png",
			"type": "image",
			"name": "radiobutton_select_up_png"
		},
		{
			"url": "assets/RadioButton/radiobutton_unselect.png",
			"type": "image",
			"name": "radiobutton_unselect_png"
		},
		{
			"url": "assets/ScrollBar/roundthumb.png",
			"type": "image",
			"name": "roundthumb_png"
		},
		{
			"url": "assets/Slider/thumb.png",
			"type": "image",
			"name": "thumb_png"
		},
		{
			"url": "assets/Slider/track.png",
			"type": "image",
			"name": "track_png"
		},
		{
			"url": "assets/Slider/tracklight.png",
			"type": "image",
			"name": "tracklight_png"
		},
		{
			"url": "assets/ToggleSwitch/handle.png",
			"type": "image",
			"name": "handle_png"
		},
		{
			"url": "assets/ToggleSwitch/off.png",
			"type": "image",
			"name": "off_png"
		},
		{
			"url": "assets/ToggleSwitch/on.png",
			"type": "image",
			"name": "on_png"
		},
		{
			"url": "assets/Button/button_down.png",
			"type": "image",
			"name": "button_down_png"
		},
		{
			"url": "assets/Button/button_up.png",
			"type": "image",
			"name": "button_up_png"
		},
		{
			"url": "assets/ProgressBar/thumb_pb.png",
			"type": "image",
			"name": "thumb_pb_png"
		},
		{
			"url": "assets/ProgressBar/track_pb.png",
			"type": "image",
			"name": "track_pb_png"
		},
		{
			"url": "assets/ScrollBar/track_sb.png",
			"type": "image",
			"name": "track_sb_png"
		},
		{
			"url": "assets/bg.jpg",
			"type": "image",
			"name": "bg_jpg"
		},
		{
			"url": "assets/egret_icon.png",
			"type": "image",
			"name": "egret_icon_png"
		},
		{
			"url": "config/description.json",
			"type": "json",
			"name": "description_json"
		},
		{
			"url": "assets/LoginPnl/3_logo.png",
			"type": "image",
			"name": "3_logo_png"
		},
		{
			"url": "assets/LoginPnl/NiuNiuView606.png",
			"type": "image",
			"name": "NiuNiuView606_png"
		},
		{
			"url": "assets/LoginPnl/NiuNiuView607.png",
			"type": "image",
			"name": "NiuNiuView607_png"
		},
		{
			"url": "assets/LoginPnl/Tex_BgLogin.png",
			"type": "image",
			"name": "Tex_BgLogin_png"
		},
		{
			"url": "assets/LoginPnl/Tex_LogoTitle.png",
			"type": "image",
			"name": "Tex_LogoTitle_png"
		},
		{
			"url": "assets/LoginPnl/Tex_LogoTitle2.png",
			"type": "image",
			"name": "Tex_LogoTitle2_png"
		},
		{
			"url": "assets/LoginPnl/niuniu.png",
			"type": "image",
			"name": "niuniu_png"
		},
		{
			"url": "assets/TeaHouse/chalouchengyuan.png",
			"type": "image",
			"name": "chalouchengyuan_png"
		},
		{
			"url": "assets/TeaHouse/hall_zuan.png",
			"type": "image",
			"name": "hall_zuan1_png"
		},
		{
			"url": "assets/TeaHouse/jifenguanli.png",
			"type": "image",
			"name": "jifenguanli_png"
		},
		{
			"url": "assets/TeaHouse/NiuNiuView009.png",
			"type": "image",
			"name": "NiuNiuView009_png"
		},
		{
			"url": "assets/TeaHouse/NiuNiuView031.png",
			"type": "image",
			"name": "NiuNiuView031_png1"
		},
		{
			"url": "assets/TeaHouse/NiuNiuView032.png",
			"type": "image",
			"name": "NiuNiuView032_png"
		},
		{
			"url": "assets/TeaHouse/NiuNiuView044.png",
			"type": "image",
			"name": "NiuNiuView044_png1"
		},
		{
			"url": "assets/TeaHouse/NiuNiuView050.png",
			"type": "image",
			"name": "NiuNiuView050_png1"
		},
		{
			"url": "assets/TeaHouse/NiuNiuView053.png",
			"type": "image",
			"name": "NiuNiuView053_png"
		},
		{
			"url": "assets/TeaHouse/NiuNiuView054.png",
			"type": "image",
			"name": "NiuNiuView054_png"
		},
		{
			"url": "assets/TeaHouse/NiuNiuView066.png",
			"type": "image",
			"name": "NiuNiuView066_png"
		},
		{
			"url": "assets/TeaHouse/NiuNiuView071.png",
			"type": "image",
			"name": "NiuNiuView071_png"
		},
		{
			"url": "assets/TeaHouse/NiuNiuView077.png",
			"type": "image",
			"name": "NiuNiuView077_png"
		},
		{
			"url": "assets/TeaHouse/NiuNiuView087.png",
			"type": "image",
			"name": "NiuNiuView087_png"
		},
		{
			"url": "assets/TeaHouse/NiuNiuView106.png",
			"type": "image",
			"name": "NiuNiuView106_png"
		},
		{
			"url": "assets/TeaHouse/NiuNiuView137.png",
			"type": "image",
			"name": "NiuNiuView137_png"
		},
		{
			"url": "assets/TeaHouse/NiuNiuView154.png",
			"type": "image",
			"name": "NiuNiuView154_png"
		},
		{
			"url": "assets/TeaHouse/NiuNiuView157.png",
			"type": "image",
			"name": "NiuNiuView157_png"
		},
		{
			"url": "assets/TeaHouse/NiuNiuView173.png",
			"type": "image",
			"name": "NiuNiuView173_png"
		},
		{
			"url": "assets/TeaHouse/NiuNiuView184.png",
			"type": "image",
			"name": "NiuNiuView184_png"
		},
		{
			"url": "assets/TeaHouse/NiuNiuView201.png",
			"type": "image",
			"name": "NiuNiuView201_png1"
		},
		{
			"url": "assets/TeaHouse/NiuNiuView225.png",
			"type": "image",
			"name": "NiuNiuView225_png"
		},
		{
			"url": "assets/TeaHouse/NiuNiuView241.png",
			"type": "image",
			"name": "NiuNiuView241_png"
		},
		{
			"url": "assets/TeaHouse/NiuNiuView282.png",
			"type": "image",
			"name": "NiuNiuView282_png"
		},
		{
			"url": "assets/TeaHouse/NiuNiuView283.png",
			"type": "image",
			"name": "NiuNiuView283_png"
		},
		{
			"url": "assets/TeaHouse/NiuNiuView290.png",
			"type": "image",
			"name": "NiuNiuView290_png"
		},
		{
			"url": "assets/TeaHouse/NiuNiuView336.png",
			"type": "image",
			"name": "NiuNiuView336_png"
		},
		{
			"url": "assets/TeaHouse/NiuNiuView382.png",
			"type": "image",
			"name": "NiuNiuView382_png"
		},
		{
			"url": "assets/TeaHouse/NiuNiuView413.png",
			"type": "image",
			"name": "NiuNiuView413_png"
		},
		{
			"url": "assets/TeaHouse/NiuNiuView431.png",
			"type": "image",
			"name": "NiuNiuView431_png"
		},
		{
			"url": "assets/TeaHouse/NiuNiuView432.png",
			"type": "image",
			"name": "NiuNiuView432_png"
		},
		{
			"url": "assets/TeaHouse/NiuNiuView442.png",
			"type": "image",
			"name": "NiuNiuView442_png1"
		},
		{
			"url": "assets/TeaHouse/NiuNiuView443.png",
			"type": "image",
			"name": "NiuNiuView443_png1"
		},
		{
			"url": "assets/TeaHouse/NiuNiuView444.png",
			"type": "image",
			"name": "NiuNiuView444_png1"
		},
		{
			"url": "assets/TeaHouse/NiuNiuView469.png",
			"type": "image",
			"name": "NiuNiuView469_png"
		},
		{
			"url": "assets/TeaHouse/NiuNiuView471.png",
			"type": "image",
			"name": "NiuNiuView471_png"
		},
		{
			"url": "assets/TeaHouse/NiuNiuView481.png",
			"type": "image",
			"name": "NiuNiuView481_png1"
		},
		{
			"url": "assets/TeaHouse/NiuNiuView517.png",
			"type": "image",
			"name": "NiuNiuView517_png"
		},
		{
			"url": "assets/TeaHouse/NiuNiuView570.png",
			"type": "image",
			"name": "NiuNiuView570_png1"
		},
		{
			"url": "assets/TeaHouse/NiuNiuView594.png",
			"type": "image",
			"name": "NiuNiuView594_png"
		},
		{
			"url": "assets/TeaHouse/NiuNiuView601.png",
			"type": "image",
			"name": "NiuNiuView601_png1"
		},
		{
			"url": "assets/TeaHouse/NiuNiuView605.png",
			"type": "image",
			"name": "NiuNiuView605_png"
		},
		{
			"url": "assets/TeaHouse/NiuNiuView625.png",
			"type": "image",
			"name": "NiuNiuView625_png1"
		},
		{
			"url": "assets/TeaHouse/NiuNiuView680.png",
			"type": "image",
			"name": "NiuNiuView680_png1"
		},
		{
			"url": "assets/TeaHouse/NiuNiuView690.png",
			"type": "image",
			"name": "NiuNiuView690_png1"
		},
		{
			"url": "assets/TeaHouse/paihangbang.png",
			"type": "image",
			"name": "paihangbang_png"
		},
		{
			"url": "assets/TeaHouse/Tex_BgChalou.png",
			"type": "image",
			"name": "Tex_BgChalou_png"
		},
		{
			"url": "assets/TeaHouse/Tex_cDeskBg.png",
			"type": "image",
			"name": "Tex_cDeskBg_png"
		},
		{
			"url": "assets/TeaHouse/Tex_ChalouBottomBg.png",
			"type": "image",
			"name": "Tex_ChalouBottomBg_png"
		},
		{
			"url": "assets/TeaHouse/Tex_ChalouTopBg.png",
			"type": "image",
			"name": "Tex_ChalouTopBg_png"
		},
		{
			"url": "assets/TeaHouse/Tex_HeadShade.png",
			"type": "image",
			"name": "Tex_HeadShade_png"
		},
		{
			"url": "assets/TeaHouse/Tex_Iconboss.png",
			"type": "image",
			"name": "Tex_Iconboss_png"
		},
		{
			"url": "assets/TeaHouse/Tex_Iconmanger.png",
			"type": "image",
			"name": "Tex_Iconmanger_png"
		},
		{
			"url": "assets/TeaHouse/Tex_inputbg2.png",
			"type": "image",
			"name": "Tex_inputbg2_png"
		},
		{
			"url": "assets/TeaHouse/Tex_RedPoint.png",
			"type": "image",
			"name": "Tex_RedPoint_png"
		},
		{
			"url": "assets/TeaHouse/Tex_scorebg.png",
			"type": "image",
			"name": "Tex_scorebg_png"
		},
		{
			"url": "assets/TeaHouse/Tex_SearchInputBg.png",
			"type": "image",
			"name": "Tex_SearchInputBg_png"
		},
		{
			"url": "assets/TeaHouse/zhanji.png",
			"type": "image",
			"name": "zhanji_png"
		},
		{
			"url": "assets/TeaHouse/Tex_BgL.png",
			"type": "image",
			"name": "Tex_BgL_png1"
		},
		{
			"url": "assets/TeaHouse/NiuNiuView581.png",
			"type": "image",
			"name": "NiuNiuView581_png1"
		},
		{
			"url": "assets/HallPnl/NiuNiuView008.png",
			"type": "image",
			"name": "NiuNiuView008_png"
		},
		{
			"url": "assets/HallPnl/NiuNiuView012.png",
			"type": "image",
			"name": "NiuNiuView012_png"
		},
		{
			"url": "assets/HallPnl/NiuNiuView018.png",
			"type": "image",
			"name": "NiuNiuView018_png"
		},
		{
			"url": "assets/HallPnl/NiuNiuView021.png",
			"type": "image",
			"name": "NiuNiuView021_png"
		},
		{
			"url": "assets/HallPnl/NiuNiuView028.png",
			"type": "image",
			"name": "NiuNiuView028_png"
		},
		{
			"url": "assets/HallPnl/NiuNiuView029.png",
			"type": "image",
			"name": "NiuNiuView029_png"
		},
		{
			"url": "assets/HallPnl/NiuNiuView031.png",
			"type": "image",
			"name": "NiuNiuView031_png"
		},
		{
			"url": "assets/HallPnl/NiuNiuView035.png",
			"type": "image",
			"name": "NiuNiuView035_png"
		},
		{
			"url": "assets/HallPnl/NiuNiuView036.png",
			"type": "image",
			"name": "NiuNiuView036_png"
		},
		{
			"url": "assets/HallPnl/NiuNiuView042.png",
			"type": "image",
			"name": "NiuNiuView042_png"
		},
		{
			"url": "assets/HallPnl/NiuNiuView044.png",
			"type": "image",
			"name": "NiuNiuView044_png"
		},
		{
			"url": "assets/HallPnl/NiuNiuView045.png",
			"type": "image",
			"name": "NiuNiuView045_png"
		},
		{
			"url": "assets/HallPnl/NiuNiuView046.png",
			"type": "image",
			"name": "NiuNiuView046_png"
		},
		{
			"url": "assets/HallPnl/NiuNiuView050.png",
			"type": "image",
			"name": "NiuNiuView050_png"
		},
		{
			"url": "assets/HallPnl/NiuNiuView051.png",
			"type": "image",
			"name": "NiuNiuView051_png"
		},
		{
			"url": "assets/HallPnl/NiuNiuView055.png",
			"type": "image",
			"name": "NiuNiuView055_png"
		},
		{
			"url": "assets/HallPnl/NiuNiuView081.png",
			"type": "image",
			"name": "NiuNiuView081_png"
		},
		{
			"url": "assets/HallPnl/NiuNiuView084.png",
			"type": "image",
			"name": "NiuNiuView084_png"
		},
		{
			"url": "assets/HallPnl/NiuNiuView089.png",
			"type": "image",
			"name": "NiuNiuView089_png"
		},
		{
			"url": "assets/HallPnl/NiuNiuView098.png",
			"type": "image",
			"name": "NiuNiuView098_png"
		},
		{
			"url": "assets/HallPnl/NiuNiuView122.png",
			"type": "image",
			"name": "NiuNiuView122_png"
		},
		{
			"url": "assets/HallPnl/NiuNiuView150.png",
			"type": "image",
			"name": "NiuNiuView150_png"
		},
		{
			"url": "assets/HallPnl/NiuNiuView158.png",
			"type": "image",
			"name": "NiuNiuView158_png"
		},
		{
			"url": "assets/HallPnl/NiuNiuView172.png",
			"type": "image",
			"name": "NiuNiuView172_png"
		},
		{
			"url": "assets/HallPnl/NiuNiuView200.png",
			"type": "image",
			"name": "NiuNiuView200_png"
		},
		{
			"url": "assets/HallPnl/NiuNiuView2002.png",
			"type": "image",
			"name": "NiuNiuView2002_png"
		},
		{
			"url": "assets/HallPnl/NiuNiuView2003.png",
			"type": "image",
			"name": "NiuNiuView2003_png"
		},
		{
			"url": "assets/HallPnl/NiuNiuView2006.png",
			"type": "image",
			"name": "NiuNiuView2006_png"
		},
		{
			"url": "assets/HallPnl/NiuNiuView2007.png",
			"type": "image",
			"name": "NiuNiuView2007_png"
		},
		{
			"url": "assets/HallPnl/NiuNiuView201.png",
			"type": "image",
			"name": "NiuNiuView201_png"
		},
		{
			"url": "assets/HallPnl/NiuNiuView2010.png",
			"type": "image",
			"name": "NiuNiuView2010_png"
		},
		{
			"url": "assets/HallPnl/NiuNiuView2011.png",
			"type": "image",
			"name": "NiuNiuView2011_png"
		},
		{
			"url": "assets/HallPnl/NiuNiuView2012.png",
			"type": "image",
			"name": "NiuNiuView2012_png"
		},
		{
			"url": "assets/HallPnl/NiuNiuView2013.png",
			"type": "image",
			"name": "NiuNiuView2013_png"
		},
		{
			"url": "assets/HallPnl/NiuNiuView2016.png",
			"type": "image",
			"name": "NiuNiuView2016_png"
		},
		{
			"url": "assets/HallPnl/NiuNiuView2017.png",
			"type": "image",
			"name": "NiuNiuView2017_png"
		},
		{
			"url": "assets/HallPnl/NiuNiuView2022.png",
			"type": "image",
			"name": "NiuNiuView2022_png"
		},
		{
			"url": "assets/HallPnl/NiuNiuView2026.png",
			"type": "image",
			"name": "NiuNiuView2026_png"
		},
		{
			"url": "assets/HallPnl/NiuNiuView227.png",
			"type": "image",
			"name": "NiuNiuView227_png"
		},
		{
			"url": "assets/HallPnl/NiuNiuView233.png",
			"type": "image",
			"name": "NiuNiuView233_png"
		},
		{
			"url": "assets/HallPnl/NiuNiuView234.png",
			"type": "image",
			"name": "NiuNiuView234_png"
		},
		{
			"url": "assets/HallPnl/NiuNiuView235.png",
			"type": "image",
			"name": "NiuNiuView235_png"
		},
		{
			"url": "assets/HallPnl/NiuNiuView267.png",
			"type": "image",
			"name": "NiuNiuView267_png"
		},
		{
			"url": "assets/HallPnl/NiuNiuView292.png",
			"type": "image",
			"name": "NiuNiuView292_png"
		},
		{
			"url": "assets/HallPnl/NiuNiuView308.png",
			"type": "image",
			"name": "NiuNiuView308_png"
		},
		{
			"url": "assets/HallPnl/NiuNiuView331.png",
			"type": "image",
			"name": "NiuNiuView331_png"
		},
		{
			"url": "assets/HallPnl/NiuNiuView405.png",
			"type": "image",
			"name": "NiuNiuView405_png"
		},
		{
			"url": "assets/HallPnl/NiuNiuView418.png",
			"type": "image",
			"name": "NiuNiuView418_png"
		},
		{
			"url": "assets/HallPnl/NiuNiuView427.png",
			"type": "image",
			"name": "NiuNiuView427_png"
		},
		{
			"url": "assets/HallPnl/NiuNiuView433.png",
			"type": "image",
			"name": "NiuNiuView433_png"
		},
		{
			"url": "assets/HallPnl/NiuNiuView436.png",
			"type": "image",
			"name": "NiuNiuView436_png"
		},
		{
			"url": "assets/HallPnl/NiuNiuView442.png",
			"type": "image",
			"name": "NiuNiuView442_png"
		},
		{
			"url": "assets/HallPnl/NiuNiuView443.png",
			"type": "image",
			"name": "NiuNiuView443_png"
		},
		{
			"url": "assets/HallPnl/NiuNiuView444.png",
			"type": "image",
			"name": "NiuNiuView444_png"
		},
		{
			"url": "assets/HallPnl/NiuNiuView445.png",
			"type": "image",
			"name": "NiuNiuView445_png"
		},
		{
			"url": "assets/HallPnl/NiuNiuView465.png",
			"type": "image",
			"name": "NiuNiuView465_png"
		},
		{
			"url": "assets/HallPnl/NiuNiuView486.png",
			"type": "image",
			"name": "NiuNiuView486_png"
		},
		{
			"url": "assets/HallPnl/NiuNiuView489.png",
			"type": "image",
			"name": "NiuNiuView489_png"
		},
		{
			"url": "assets/HallPnl/NiuNiuView491.png",
			"type": "image",
			"name": "NiuNiuView491_png"
		},
		{
			"url": "assets/HallPnl/NiuNiuView502.png",
			"type": "image",
			"name": "NiuNiuView502_png"
		},
		{
			"url": "assets/HallPnl/NiuNiuView505.png",
			"type": "image",
			"name": "NiuNiuView505_png"
		},
		{
			"url": "assets/HallPnl/NiuNiuView526.png",
			"type": "image",
			"name": "NiuNiuView526_png"
		},
		{
			"url": "assets/HallPnl/NiuNiuView527.png",
			"type": "image",
			"name": "NiuNiuView527_png"
		},
		{
			"url": "assets/HallPnl/NiuNiuView530.png",
			"type": "image",
			"name": "NiuNiuView530_png"
		},
		{
			"url": "assets/HallPnl/NiuNiuView532.png",
			"type": "image",
			"name": "NiuNiuView532_png"
		},
		{
			"url": "assets/HallPnl/NiuNiuView542.png",
			"type": "image",
			"name": "NiuNiuView542_png"
		},
		{
			"url": "assets/HallPnl/NiuNiuView546.png",
			"type": "image",
			"name": "NiuNiuView546_png"
		},
		{
			"url": "assets/HallPnl/NiuNiuView547.png",
			"type": "image",
			"name": "NiuNiuView547_png"
		},
		{
			"url": "assets/HallPnl/NiuNiuView551.png",
			"type": "image",
			"name": "NiuNiuView551_png"
		},
		{
			"url": "assets/HallPnl/NiuNiuView552.png",
			"type": "image",
			"name": "NiuNiuView552_png"
		},
		{
			"url": "assets/HallPnl/NiuNiuView555.png",
			"type": "image",
			"name": "NiuNiuView555_png"
		},
		{
			"url": "assets/HallPnl/NiuNiuView557.png",
			"type": "image",
			"name": "NiuNiuView557_png"
		},
		{
			"url": "assets/HallPnl/NiuNiuView562.png",
			"type": "image",
			"name": "NiuNiuView562_png"
		},
		{
			"url": "assets/HallPnl/NiuNiuView564.png",
			"type": "image",
			"name": "NiuNiuView564_png"
		},
		{
			"url": "assets/HallPnl/NiuNiuView572.png",
			"type": "image",
			"name": "NiuNiuView572_png"
		},
		{
			"url": "assets/HallPnl/NiuNiuView580.png",
			"type": "image",
			"name": "NiuNiuView580_png"
		},
		{
			"url": "assets/HallPnl/NiuNiuView588.png",
			"type": "image",
			"name": "NiuNiuView588_png"
		},
		{
			"url": "assets/HallPnl/NiuNiuView599.png",
			"type": "image",
			"name": "NiuNiuView599_png"
		},
		{
			"url": "assets/HallPnl/NiuNiuView601.png",
			"type": "image",
			"name": "NiuNiuView601_png"
		},
		{
			"url": "assets/HallPnl/NiuNiuView608.png",
			"type": "image",
			"name": "NiuNiuView608_png"
		},
		{
			"url": "assets/HallPnl/NiuNiuView613.png",
			"type": "image",
			"name": "NiuNiuView613_png"
		},
		{
			"url": "assets/HallPnl/NiuNiuView629.png",
			"type": "image",
			"name": "NiuNiuView629_png"
		},
		{
			"url": "assets/HallPnl/NiuNiuView632.png",
			"type": "image",
			"name": "NiuNiuView632_png"
		},
		{
			"url": "assets/HallPnl/NiuNiuView639.png",
			"type": "image",
			"name": "NiuNiuView639_png"
		},
		{
			"url": "assets/HallPnl/NiuNiuView643.png",
			"type": "image",
			"name": "NiuNiuView643_png"
		},
		{
			"url": "assets/HallPnl/NiuNiuView646.png",
			"type": "image",
			"name": "NiuNiuView646_png"
		},
		{
			"url": "assets/HallPnl/NiuNiuView654.png",
			"type": "image",
			"name": "NiuNiuView654_png"
		},
		{
			"url": "assets/HallPnl/NiuNiuView666.png",
			"type": "image",
			"name": "NiuNiuView666_png"
		},
		{
			"url": "assets/HallPnl/NiuNiuView671.png",
			"type": "image",
			"name": "NiuNiuView671_png"
		},
		{
			"url": "assets/HallPnl/NiuNiuView680.png",
			"type": "image",
			"name": "NiuNiuView680_png"
		},
		{
			"url": "assets/HallPnl/NiuNiuView690.png",
			"type": "image",
			"name": "NiuNiuView690_png"
		},
		{
			"url": "assets/HallPnl/NiuNiuView691.png",
			"type": "image",
			"name": "NiuNiuView691_png"
		},
		{
			"url": "assets/HallPnl/NiuNiuView699.png",
			"type": "image",
			"name": "NiuNiuView699_png"
		},
		{
			"url": "assets/HallPnl/Shop_itembg.png",
			"type": "image",
			"name": "Shop_itembg_png"
		},
		{
			"url": "assets/HallPnl/Shop_table_l.png",
			"type": "image",
			"name": "Shop_table_l_png"
		},
		{
			"url": "assets/HallPnl/Shop_table_lc.png",
			"type": "image",
			"name": "Shop_table_lc_png"
		},
		{
			"url": "assets/HallPnl/Tex_BgAgentBind.png",
			"type": "image",
			"name": "Tex_BgAgentBind_png"
		},
		{
			"url": "assets/HallPnl/Tex_BgHall.png",
			"type": "image",
			"name": "Tex_BgHall_png"
		},
		{
			"url": "assets/HallPnl/Tex_BgInfo.png",
			"type": "image",
			"name": "Tex_BgInfo_png"
		},
		{
			"url": "assets/HallPnl/Tex_BgRecharge.png",
			"type": "image",
			"name": "Tex_BgRecharge_png"
		},
		{
			"url": "assets/HallPnl/Tex_CustomTypeIco1.png",
			"type": "image",
			"name": "Tex_CustomTypeIco1_png"
		},
		{
			"url": "assets/HallPnl/Tex_EveryDaySignBoard.png",
			"type": "image",
			"name": "Tex_EveryDaySignBoard_png"
		},
		{
			"url": "assets/HallPnl/Tex_EveryDaySignBoard2.png",
			"type": "image",
			"name": "Tex_EveryDaySignBoard2_png"
		},
		{
			"url": "assets/HallPnl/Tex_HallBottomBg.png",
			"type": "image",
			"name": "Tex_HallBottomBg_png"
		},
		{
			"url": "assets/HallPnl/Tex_ListBarRank.png",
			"type": "image",
			"name": "Tex_ListBarRank_png"
		},
		{
			"url": "assets/HallPnl/Tex_RecordItemBg.png",
			"type": "image",
			"name": "Tex_RecordItemBg_png"
		},
		{
			"url": "assets/HallPnl/Tex_RightSelectBg.png",
			"type": "image",
			"name": "Tex_RightSelectBg_png"
		},
		{
			"url": "assets/HallPnl/Tex_RoomListItemBg.png",
			"type": "image",
			"name": "Tex_RoomListItemBg_png"
		},
		{
			"url": "assets/HallPnl/Tex_TopSelectBg.png",
			"type": "image",
			"name": "Tex_TopSelectBg_png"
		},
		{
			"url": "assets/HallPnl/Tex_pn_ad.png",
			"type": "image",
			"name": "Tex_pn_ad_png"
		},
		{
			"url": "assets/HallPnl/Tex_shareBg1.png",
			"type": "image",
			"name": "Tex_shareBg1_png"
		},
		{
			"url": "assets/HallPnl/bar1.png",
			"type": "image",
			"name": "bar1_png"
		},
		{
			"url": "assets/HallPnl/bar2.png",
			"type": "image",
			"name": "bar2_png"
		},
		{
			"url": "assets/HallPnl/chuangjianfangjian.png",
			"type": "image",
			"name": "chuangjianfangjian_png"
		},
		{
			"url": "assets/HallPnl/common_title.png",
			"type": "image",
			"name": "common_title_png"
		},
		{
			"url": "assets/HallPnl/create-club.png",
			"type": "image",
			"name": "create-club_png"
		},
		{
			"url": "assets/HallPnl/create-room.png",
			"type": "image",
			"name": "create-room_png"
		},
		{
			"url": "assets/HallPnl/hal_title.png",
			"type": "image",
			"name": "hal_title_png"
		},
		{
			"url": "assets/HallPnl/hall_add.png",
			"type": "image",
			"name": "hall_add_png"
		},
		{
			"url": "assets/HallPnl/hall_btn_activity.png",
			"type": "image",
			"name": "hall_btn_activity_png"
		},
		{
			"url": "assets/HallPnl/hall_btn_award.png",
			"type": "image",
			"name": "hall_btn_award_png"
		},
		{
			"url": "assets/HallPnl/hall_btn_clublist.png",
			"type": "image",
			"name": "hall_btn_clublist_png"
		},
		{
			"url": "assets/HallPnl/hall_btn_feed.png",
			"type": "image",
			"name": "hall_btn_feed_png"
		},
		{
			"url": "assets/HallPnl/hall_btn_menu.png",
			"type": "image",
			"name": "hall_btn_menu_png"
		},
		{
			"url": "assets/HallPnl/hall_btn_message.png",
			"type": "image",
			"name": "hall_btn_message_png"
		},
		{
			"url": "assets/HallPnl/hall_btn_quit.png",
			"type": "image",
			"name": "hall_btn_quit_png"
		},
		{
			"url": "assets/HallPnl/hall_btn_record.png",
			"type": "image",
			"name": "hall_btn_record_png"
		},
		{
			"url": "assets/HallPnl/hall_btn_roomlist.png",
			"type": "image",
			"name": "hall_btn_roomlist_png"
		},
		{
			"url": "assets/HallPnl/hall_btn_rule.png",
			"type": "image",
			"name": "hall_btn_rule_png"
		},
		{
			"url": "assets/HallPnl/hall_btn_set.png",
			"type": "image",
			"name": "hall_btn_set_png"
		},
		{
			"url": "assets/HallPnl/hall_btn_share.png",
			"type": "image",
			"name": "hall_btn_share_png"
		},
		{
			"url": "assets/HallPnl/hall_btn_shop.png",
			"type": "image",
			"name": "hall_btn_shop_png"
		},
		{
			"url": "assets/HallPnl/hall_btn_yaoqing.png",
			"type": "image",
			"name": "hall_btn_yaoqing_png"
		},
		{
			"url": "assets/HallPnl/hall_icard.png",
			"type": "image",
			"name": "hall_icard_png"
		},
		{
			"url": "assets/HallPnl/hall_id.png",
			"type": "image",
			"name": "hall_id_png"
		},
		{
			"url": "assets/HallPnl/hall_img_headsh.png",
			"type": "image",
			"name": "hall_img_headsh_png"
		},
		{
			"url": "assets/HallPnl/hall_img_headsh1.png",
			"type": "image",
			"name": "hall_img_headsh1_png"
		},
		{
			"url": "assets/HallPnl/hall_img_laba.png",
			"type": "image",
			"name": "hall_img_laba_png"
		},
		{
			"url": "assets/HallPnl/hall_img_labaicon.png",
			"type": "image",
			"name": "hall_img_labaicon_png"
		},
		{
			"url": "assets/HallPnl/hall_name.png",
			"type": "image",
			"name": "hall_name_png"
		},
		{
			"url": "assets/HallPnl/hall_nan.png",
			"type": "image",
			"name": "hall_nan_png"
		},
		{
			"url": "assets/HallPnl/hall_nv.png",
			"type": "image",
			"name": "hall_nv_png"
		},
		{
			"url": "assets/HallPnl/hall_red_point.png",
			"type": "image",
			"name": "hall_red_point_png"
		},
		{
			"url": "assets/HallPnl/hall_selectbg.png",
			"type": "image",
			"name": "hall_selectbg_png"
		},
		{
			"url": "assets/HallPnl/hall_selectchoose.png",
			"type": "image",
			"name": "hall_selectchoose_png"
		},
		{
			"url": "assets/HallPnl/hall_zuan.png",
			"type": "image",
			"name": "hall_zuan_png"
		},
		{
			"url": "assets/HallPnl/head_kuan.png",
			"type": "image",
			"name": "head_kuan_png"
		},
		{
			"url": "assets/HallPnl/im_ScoreAllLose.png",
			"type": "image",
			"name": "im_ScoreAllLose_png"
		},
		{
			"url": "assets/HallPnl/im_ScoreAllWin.png",
			"type": "image",
			"name": "im_ScoreAllWin_png"
		},
		{
			"url": "assets/HallPnl/info_leave1.png",
			"type": "image",
			"name": "info_leave1_png"
		},
		{
			"url": "assets/HallPnl/info_leave2.png",
			"type": "image",
			"name": "info_leave2_png"
		},
		{
			"url": "assets/HallPnl/info_leave3.png",
			"type": "image",
			"name": "info_leave3_png"
		},
		{
			"url": "assets/HallPnl/info_leave4.png",
			"type": "image",
			"name": "info_leave4_png"
		},
		{
			"url": "assets/HallPnl/info_leave5.png",
			"type": "image",
			"name": "info_leave5_png"
		},
		{
			"url": "assets/HallPnl/info_leave6.png",
			"type": "image",
			"name": "info_leave6_png"
		},
		{
			"url": "assets/HallPnl/info_leave7.png",
			"type": "image",
			"name": "info_leave7_png"
		},
		{
			"url": "assets/HallPnl/join-game.png",
			"type": "image",
			"name": "join-game_png"
		},
		{
			"url": "assets/HallPnl/mobile_004.png",
			"type": "image",
			"name": "mobile_004_png"
		},
		{
			"url": "assets/HallPnl/mobile_010.png",
			"type": "image",
			"name": "mobile_010_png"
		},
		{
			"url": "assets/HallPnl/mobile_015.png",
			"type": "image",
			"name": "mobile_015_png"
		},
		{
			"url": "assets/HallPnl/ng.png",
			"type": "image",
			"name": "ng_png"
		},
		{
			"url": "assets/HallPnl/record_titlerecord.png",
			"type": "image",
			"name": "record_titlerecord_png"
		},
		{
			"url": "assets/HallPnl/share_title.png",
			"type": "image",
			"name": "share_title_png"
		},
		{
			"url": "assets/HallPnl/sign_itembg.png",
			"type": "image",
			"name": "sign_itembg_png"
		},
		{
			"url": "assets/HallPnl/tex_joinroomad.png",
			"type": "image",
			"name": "tex_joinroomad_png"
		},
		{
			"url": "assets/HallPnl/tex_joinroombottom.png",
			"type": "image",
			"name": "tex_joinroombottom_png"
		},
		{
			"url": "assets/HallPnl/title_icard.png",
			"type": "image",
			"name": "title_icard_png"
		},
		{
			"url": "assets/HallPnl/title_kefu.png",
			"type": "image",
			"name": "title_kefu_png"
		},
		{
			"url": "assets/HallPnl/title_set.png",
			"type": "image",
			"name": "title_set_png"
		},
		{
			"url": "assets/HallPnl/xiaoxi.png",
			"type": "image",
			"name": "xiaoxi_png"
		},
		{
			"url": "assets/common/NiuNiuView015.png",
			"type": "image",
			"name": "NiuNiuView015_png"
		},
		{
			"url": "assets/common/NiuNiuView481.png",
			"type": "image",
			"name": "NiuNiuView481_png"
		},
		{
			"url": "assets/common/NiuNiuView492.png",
			"type": "image",
			"name": "NiuNiuView492_png"
		},
		{
			"url": "assets/common/NiuNiuView570.png",
			"type": "image",
			"name": "NiuNiuView570_png"
		},
		{
			"url": "assets/common/NiuNiuView581.png",
			"type": "image",
			"name": "NiuNiuView581_png"
		},
		{
			"url": "assets/common/NiuNiuView582.png",
			"type": "image",
			"name": "NiuNiuView582_png"
		},
		{
			"url": "assets/common/NiuNiuView625.png",
			"type": "image",
			"name": "NiuNiuView625_png"
		},
		{
			"url": "assets/common/Tex_BgBig.png",
			"type": "image",
			"name": "Tex_BgBig_png"
		},
		{
			"url": "assets/common/Tex_BgL.png",
			"type": "image",
			"name": "Tex_BgL_png"
		},
		{
			"url": "assets/common/Tex_BgS.png",
			"type": "image",
			"name": "Tex_BgS_png"
		},
		{
			"url": "assets/TeaHouse/NiuNiuView045.png",
			"type": "image",
			"name": "NiuNiuView0452_png"
		},
		{
			"url": "assets/Combobox/NiuNiuView557.png",
			"type": "image",
			"name": "NiuNiuView5572_png"
		},
		{
			"url": "assets/Combobox/Tex_inputbg2.png",
			"type": "image",
			"name": "Tex_inputbg22_png"
		},
		{
			"url": "assets/Combobox/NiuNiuView481.png",
			"type": "image",
			"name": "NiuNiuView481_png2"
		},
		{
			"url": "assets/TeaHouse/NiuNiuView051.png",
			"type": "image",
			"name": "NiuNiuView051_png1"
		},
		{
			"url": "assets/TeaHouse/NiuNiuView098.png",
			"type": "image",
			"name": "NiuNiuView098_png1"
		},
		{
			"url": "assets/TeaHouse/NiuNiuView015.png",
			"type": "image",
			"name": "NiuNiuView015_png1"
		},
		{
			"url": "assets/Game/GameBg0.png",
			"type": "image",
			"name": "GameBg0_png"
		},
		{
			"url": "assets/TeaHouse/teamub.png",
			"type": "image",
			"name": "teamub_png"
		},
		{
			"url": "assets/Poker/BgBlue.png",
			"type": "image",
			"name": "BgBlue_png"
		},
		{
			"url": "assets/Poker/BgGreen.png",
			"type": "image",
			"name": "BgGreen_png"
		},
		{
			"url": "assets/Poker/BgOrigin.png",
			"type": "image",
			"name": "BgOrigin_png"
		},
		{
			"url": "assets/Poker/BgRed.png",
			"type": "image",
			"name": "BgRed_png"
		},
		{
			"url": "assets/Poker/Black1.png",
			"type": "image",
			"name": "Black1_png"
		},
		{
			"url": "assets/Poker/Black10.png",
			"type": "image",
			"name": "Black10_png"
		},
		{
			"url": "assets/Poker/Black11.png",
			"type": "image",
			"name": "Black11_png"
		},
		{
			"url": "assets/Poker/Black12.png",
			"type": "image",
			"name": "Black12_png"
		},
		{
			"url": "assets/Poker/Black13.png",
			"type": "image",
			"name": "Black13_png"
		},
		{
			"url": "assets/Poker/Black2.png",
			"type": "image",
			"name": "Black2_png"
		},
		{
			"url": "assets/Poker/Black3.png",
			"type": "image",
			"name": "Black3_png"
		},
		{
			"url": "assets/Poker/Black4.png",
			"type": "image",
			"name": "Black4_png"
		},
		{
			"url": "assets/Poker/Black5.png",
			"type": "image",
			"name": "Black5_png"
		},
		{
			"url": "assets/Poker/Black6.png",
			"type": "image",
			"name": "Black6_png"
		},
		{
			"url": "assets/Poker/Black7.png",
			"type": "image",
			"name": "Black7_png"
		},
		{
			"url": "assets/Poker/Black8.png",
			"type": "image",
			"name": "Black8_png"
		},
		{
			"url": "assets/Poker/Black9.png",
			"type": "image",
			"name": "Black9_png"
		},
		{
			"url": "assets/Poker/Flower1.png",
			"type": "image",
			"name": "Flower1_png"
		},
		{
			"url": "assets/Poker/Flower10.png",
			"type": "image",
			"name": "Flower10_png"
		},
		{
			"url": "assets/Poker/Flower11.png",
			"type": "image",
			"name": "Flower11_png"
		},
		{
			"url": "assets/Poker/Flower12.png",
			"type": "image",
			"name": "Flower12_png"
		},
		{
			"url": "assets/Poker/Flower13.png",
			"type": "image",
			"name": "Flower13_png"
		},
		{
			"url": "assets/Poker/Flower2.png",
			"type": "image",
			"name": "Flower2_png"
		},
		{
			"url": "assets/Poker/Flower3.png",
			"type": "image",
			"name": "Flower3_png"
		},
		{
			"url": "assets/Poker/Flower4.png",
			"type": "image",
			"name": "Flower4_png"
		},
		{
			"url": "assets/Poker/Flower5.png",
			"type": "image",
			"name": "Flower5_png"
		},
		{
			"url": "assets/Poker/Flower6.png",
			"type": "image",
			"name": "Flower6_png"
		},
		{
			"url": "assets/Poker/Flower7.png",
			"type": "image",
			"name": "Flower7_png"
		},
		{
			"url": "assets/Poker/Flower8.png",
			"type": "image",
			"name": "Flower8_png"
		},
		{
			"url": "assets/Poker/Flower9.png",
			"type": "image",
			"name": "Flower9_png"
		},
		{
			"url": "assets/Poker/JokerBlack.png",
			"type": "image",
			"name": "JokerBlack_png"
		},
		{
			"url": "assets/Poker/JokerColor.png",
			"type": "image",
			"name": "JokerColor_png"
		},
		{
			"url": "assets/Poker/PokerTag.png",
			"type": "image",
			"name": "PokerTag_png"
		},
		{
			"url": "assets/Poker/Red1.png",
			"type": "image",
			"name": "Red1_png"
		},
		{
			"url": "assets/Poker/Red10.png",
			"type": "image",
			"name": "Red10_png"
		},
		{
			"url": "assets/Poker/Red11.png",
			"type": "image",
			"name": "Red11_png"
		},
		{
			"url": "assets/Poker/Red12.png",
			"type": "image",
			"name": "Red12_png"
		},
		{
			"url": "assets/Poker/Red13.png",
			"type": "image",
			"name": "Red13_png"
		},
		{
			"url": "assets/Poker/Red2.png",
			"type": "image",
			"name": "Red2_png"
		},
		{
			"url": "assets/Poker/Red3.png",
			"type": "image",
			"name": "Red3_png"
		},
		{
			"url": "assets/Poker/Red4.png",
			"type": "image",
			"name": "Red4_png"
		},
		{
			"url": "assets/Poker/Red5.png",
			"type": "image",
			"name": "Red5_png"
		},
		{
			"url": "assets/Poker/Red6.png",
			"type": "image",
			"name": "Red6_png"
		},
		{
			"url": "assets/Poker/Red7.png",
			"type": "image",
			"name": "Red7_png"
		},
		{
			"url": "assets/Poker/Red8.png",
			"type": "image",
			"name": "Red8_png"
		},
		{
			"url": "assets/Poker/Red9.png",
			"type": "image",
			"name": "Red9_png"
		},
		{
			"url": "assets/Poker/Square1.png",
			"type": "image",
			"name": "Square1_png"
		},
		{
			"url": "assets/Poker/Square10.png",
			"type": "image",
			"name": "Square10_png"
		},
		{
			"url": "assets/Poker/Square11.png",
			"type": "image",
			"name": "Square11_png"
		},
		{
			"url": "assets/Poker/Square12.png",
			"type": "image",
			"name": "Square12_png"
		},
		{
			"url": "assets/Poker/Square13.png",
			"type": "image",
			"name": "Square13_png"
		},
		{
			"url": "assets/Poker/Square2.png",
			"type": "image",
			"name": "Square2_png"
		},
		{
			"url": "assets/Poker/Square3.png",
			"type": "image",
			"name": "Square3_png"
		},
		{
			"url": "assets/Poker/Square4.png",
			"type": "image",
			"name": "Square4_png"
		},
		{
			"url": "assets/Poker/Square5.png",
			"type": "image",
			"name": "Square5_png"
		},
		{
			"url": "assets/Poker/Square6.png",
			"type": "image",
			"name": "Square6_png"
		},
		{
			"url": "assets/Poker/Square7.png",
			"type": "image",
			"name": "Square7_png"
		},
		{
			"url": "assets/Poker/Square8.png",
			"type": "image",
			"name": "Square8_png"
		},
		{
			"url": "assets/Poker/Square9.png",
			"type": "image",
			"name": "Square9_png"
		},
		{
			"url": "assets/Game/GameBgXian10.png",
			"type": "image",
			"name": "GameBgXian10_png"
		},
		{
			"url": "assets/Game/GameBgXian6.png",
			"type": "image",
			"name": "GameBgXian6_png"
		},
		{
			"url": "assets/Game/GameBgXian8.png",
			"type": "image",
			"name": "GameBgXian8_png"
		},
		{
			"url": "assets/HallPnl/Tex_EmailListItemBg.png",
			"type": "image",
			"name": "Tex_EmailListItemBg_png"
		},
		{
			"url": "assets/HallPnl/other_tablechoose.png",
			"type": "image",
			"name": "other_tablechoose_png"
		},
		{
			"url": "assets/HallPnl/other_tablechooser.png",
			"type": "image",
			"name": "other_tablechooser_png"
		},
		{
			"url": "assets/HallPnl/other_tablenormal.png",
			"type": "image",
			"name": "other_tablenormal_png"
		},
		{
			"url": "assets/HallPnl/other_tablenormalr.png",
			"type": "image",
			"name": "other_tablenormalr_png"
		},
		{
			"url": "assets/HallPnl/signborad_bg.png",
			"type": "image",
			"name": "signborad_bg_png"
		},
		{
			"url": "assets/TeaHouse/Tex_SearchInputBtn.png",
			"type": "image",
			"name": "Tex_SearchInputBtn_png"
		},
		{
			"url": "assets/TeaHouse/Tex_lchoose.png",
			"type": "image",
			"name": "Tex_lchoose_png"
		},
		{
			"url": "assets/TeaHouse/Tex_lunchoose.png",
			"type": "image",
			"name": "Tex_lunchoose_png"
		},
		{
			"url": "assets/TeaHouse/jifeng.png",
			"type": "image",
			"name": "jifeng_png"
		},
		{
			"url": "assets/Game/Tex_RecordItemBg.png",
			"type": "image",
			"name": "Tex_RecordItemBg2_png"
		},
		{
			"url": "assets/Game/Tex_RoomListItemBg.png",
			"type": "image",
			"name": "Tex_RoomListItemBg2_png"
		},
		{
			"url": "assets/Game/im_ScoreAllLose.png",
			"type": "image",
			"name": "im_ScoreAllLose2_png"
		},
		{
			"url": "assets/Game/im_ScoreAllWin.png",
			"type": "image",
			"name": "im_ScoreAllWin2_png"
		},
		{
			"url": "assets/Game/NiuNiuView084.png",
			"type": "image",
			"name": "NiuNiuView0842_png"
		},
		{
			"url": "assets/Game/NiuNiuView122.png",
			"type": "image",
			"name": "NiuNiuView1222_png"
		},
		{
			"url": "assets/Game/NiuNiuView679.png",
			"type": "image",
			"name": "NiuNiuView679_png"
		},
		{
			"url": "assets/Game/NiuNiuView267.png",
			"type": "image",
			"name": "NiuNiuView2672_png"
		},
		{
			"url": "assets/Game/btnLiiShow.png",
			"type": "image",
			"name": "btnLiiShow_png"
		},
		{
			"url": "assets/Game/btnLiiReady.png",
			"type": "image",
			"name": "btnLiiReady_png"
		},
		{
			"url": "assets/Game/q0.png",
			"type": "image",
			"name": "q0_png"
		},
		{
			"url": "assets/Game/q1.png",
			"type": "image",
			"name": "q1_png"
		},
		{
			"url": "assets/Game/q2.png",
			"type": "image",
			"name": "q2_png"
		},
		{
			"url": "assets/Game/q3.png",
			"type": "image",
			"name": "q3_png"
		},
		{
			"url": "assets/Game/q4.png",
			"type": "image",
			"name": "q4_png"
		},
		{
			"url": "assets/Game/user_head_bg.png",
			"type": "image",
			"name": "user_head_bg_png"
		},
		{
			"url": "assets/Game/user_head_bg_v.png",
			"type": "image",
			"name": "user_head_bg_v_png"
		},
		{
			"url": "assets/Game/record_yxn_btn_back.png",
			"type": "image",
			"name": "record_yxn_btn_back_png"
		},
		{
			"url": "assets/Game/other_bg.png",
			"type": "image",
			"name": "other_bg_png"
		},
		{
			"url": "assets/Game/desktop_btn_sit.png",
			"type": "image",
			"name": "desktop_btn_sit_png"
		},
		{
			"url": "assets/Game/game_coin.png",
			"type": "image",
			"name": "Coin_png"
		},
		{
			"url": "assets/Game/record_yxn_btn_share.png",
			"type": "image",
			"name": "record_yxn_btn_share_png"
		},
		{
			"url": "assets/Game/desktop_btn_start.png",
			"type": "image",
			"name": "desktop_btn_start_png"
		},
		{
			"url": "assets/Game/fanhuidating.png",
			"type": "image",
			"name": "fanhuidating_png"
		},
		{
			"url": "assets/Game/border_h.png",
			"type": "image",
			"name": "border_h_png"
		},
		{
			"url": "assets/Game/border_v.png",
			"type": "image",
			"name": "border_v_png"
		},
		{
			"url": "assets/Game/xiazhubg.png",
			"type": "image",
			"name": "xiazhubg_png"
		},
		{
			"url": "assets/Game/multi0.png",
			"type": "image",
			"name": "multi0_png"
		},
		{
			"url": "assets/Game/multi1.png",
			"type": "image",
			"name": "multi1_png"
		},
		{
			"url": "assets/Game/multi2.png",
			"type": "image",
			"name": "multi2_png"
		},
		{
			"url": "assets/Game/multi3.png",
			"type": "image",
			"name": "multi3_png"
		},
		{
			"url": "assets/Game/multi4.png",
			"type": "image",
			"name": "multi4_png"
		},
		{
			"url": "assets/CardType/niu_0.png",
			"type": "image",
			"name": "niu_0_png"
		},
		{
			"url": "assets/CardType/niu_1.png",
			"type": "image",
			"name": "niu_1_png"
		},
		{
			"url": "assets/CardType/niu_2.png",
			"type": "image",
			"name": "niu_2_png"
		},
		{
			"url": "assets/CardType/niu_3.png",
			"type": "image",
			"name": "niu_3_png"
		},
		{
			"url": "assets/CardType/niu_4.png",
			"type": "image",
			"name": "niu_4_png"
		},
		{
			"url": "assets/CardType/niu_5.png",
			"type": "image",
			"name": "niu_5_png"
		},
		{
			"url": "assets/CardType/niu_6.png",
			"type": "image",
			"name": "niu_6_png"
		},
		{
			"url": "assets/CardType/niu_7.png",
			"type": "image",
			"name": "niu_7_png"
		},
		{
			"url": "assets/CardType/niu_8.png",
			"type": "image",
			"name": "niu_8_png"
		},
		{
			"url": "assets/CardType/niu_9.png",
			"type": "image",
			"name": "niu_9_png"
		},
		{
			"url": "assets/CardType/niu_10.png",
			"type": "image",
			"name": "niu_10_png"
		},
		{
			"url": "assets/CardType/niu_11.png",
			"type": "image",
			"name": "niu_11_png"
		},
		{
			"url": "assets/CardType/niu_12.png",
			"type": "image",
			"name": "niu_12_png"
		},
		{
			"url": "assets/CardType/niu_13.png",
			"type": "image",
			"name": "niu_13_png"
		},
		{
			"url": "assets/CardType/niu_14.png",
			"type": "image",
			"name": "niu_14_png"
		},
		{
			"url": "assets/CardType/niu_15.png",
			"type": "image",
			"name": "niu_15_png"
		},
		{
			"url": "assets/CardType/niu_16.png",
			"type": "image",
			"name": "niu_16_png"
		},
		{
			"url": "assets/CardType/niu_17.png",
			"type": "image",
			"name": "niu_17_png"
		},
		{
			"url": "assets/Game/desktop_bgbtn.png",
			"type": "image",
			"name": "desktop_bgbtn_png"
		},
		{
			"url": "assets/Game/btnLiiLook.png",
			"type": "image",
			"name": "btnLiiLook_png"
		},
		{
			"url": "assets/Game/btnLiiTips.png",
			"type": "image",
			"name": "btnLiiTips_png"
		},
		{
			"url": "assets/Game/desktop_wenzidiban.png",
			"type": "image",
			"name": "desktop_wenzidiban_png"
		},
		{
			"url": "assets/TeaHouse/Tex_titlefrient.png",
			"type": "image",
			"name": "Tex_titlefrient_png"
		},
		{
			"url": "assets/TeaHouse/Tex_titleselfmember.png",
			"type": "image",
			"name": "Tex_titleselfmember_png"
		},
		{
			"url": "assets/TeaHouse/Tex_titlehismember.png",
			"type": "image",
			"name": "Tex_titlehismember_png"
		},
		{
			"url": "assets/Game/NiuNiuView581.png",
			"type": "image",
			"name": "NiuNiuView5812_png"
		},
		{
			"url": "assets/Game/tuoguan_check1.png",
			"type": "image",
			"name": "tuoguan_check1_png"
		},
		{
			"url": "assets/Game/tuoguan_check1x.png",
			"type": "image",
			"name": "tuoguan_check1x_png"
		},
		{
			"url": "assets/Game/tuoguan_check2.png",
			"type": "image",
			"name": "tuoguan_check2_png"
		},
		{
			"url": "assets/Game/tuoguan_check2x.png",
			"type": "image",
			"name": "tuoguan_check2x_png"
		},
		{
			"url": "assets/Game/tuoguan_checkbg.png",
			"type": "image",
			"name": "tuoguan_checkbg_png"
		},
		{
			"url": "assets/Game/item_bg.png",
			"type": "image",
			"name": "item_bg_png"
		},
		{
			"url": "assets/Game/NiuNiuView582.png",
			"type": "image",
			"name": "NiuNiuView582_png1"
		},
		{
			"url": "assets/Game/sjhg_line.png",
			"type": "image",
			"name": "sjhg_line_png"
		},
		{
			"url": "assets/Game/game_person_propbg.png",
			"type": "image",
			"name": "game_person_propbg_png"
		},
		{
			"url": "assets/Game/setted_1.png",
			"type": "image",
			"name": "setted_1_png"
		},
		{
			"url": "assets/Game/desktop_btn_tishibeishu.png",
			"type": "image",
			"name": "desktop_btn_tishibeishu_png"
		},
		{
			"url": "assets/GameMenu/desktop_btn_extens_s.png",
			"type": "image",
			"name": "desktop_btn_extens_s_png"
		},
		{
			"url": "assets/GameMenu/desktop_btn_extens_x.png",
			"type": "image",
			"name": "desktop_btn_extens_x_png"
		},
		{
			"url": "assets/GameMenu/desktop_img_diban.png",
			"type": "image",
			"name": "desktop_img_diban_png"
		},
		{
			"url": "assets/GameMenu/desktop_btn_jiesanfangjian.png",
			"type": "image",
			"name": "desktop_btn_jiesanfangjian_png"
		},
		{
			"url": "assets/GameMenu/desktop_btn_jiesanfangjian_d.png",
			"type": "image",
			"name": "desktop_btn_jiesanfangjian_d_png"
		},
		{
			"url": "assets/GameMenu/desktop_btn_jiesanfangjian_p.png",
			"type": "image",
			"name": "desktop_btn_jiesanfangjian_p_png"
		},
		{
			"url": "assets/GameMenu/desktop_btn_likaifangjian.png",
			"type": "image",
			"name": "desktop_btn_likaifangjian_png"
		},
		{
			"url": "assets/GameMenu/desktop_btn_likaifangjian_d.png",
			"type": "image",
			"name": "desktop_btn_likaifangjian_d_png"
		},
		{
			"url": "assets/GameMenu/desktop_btn_likaifangjian_d_p.png",
			"type": "image",
			"name": "desktop_btn_likaifangjian_d_p_png"
		},
		{
			"url": "assets/GameMenu/desktop_btn_shangjuhuigu.png",
			"type": "image",
			"name": "desktop_btn_shangjuhuigu_png"
		},
		{
			"url": "assets/GameMenu/desktop_btn_shangjuhuigu_p.png",
			"type": "image",
			"name": "desktop_btn_shangjuhuigu_p_png"
		},
		{
			"url": "assets/GameMenu/desktop_btn_youxishezhi.png",
			"type": "image",
			"name": "desktop_btn_youxishezhi_png"
		},
		{
			"url": "assets/GameMenu/desktop_btn_youxishezhi_p.png",
			"type": "image",
			"name": "desktop_btn_youxishezhi_p_png"
		},
		{
			"url": "assets/GameMenu/set_btn_slliding.png",
			"type": "image",
			"name": "set_btn_slliding_png"
		},
		{
			"url": "assets/GameMenu/set_btn_voice_off.png",
			"type": "image",
			"name": "set_btn_voice_off_png"
		},
		{
			"url": "assets/GameMenu/set_btn_voice_on.png",
			"type": "image",
			"name": "set_btn_voice_on_png"
		},
		{
			"url": "assets/GameMenu/set_slliding_bottom.png",
			"type": "image",
			"name": "set_slliding_bottom_png"
		},
		{
			"url": "assets/GameMenu/set_slliding_top.png",
			"type": "image",
			"name": "set_slliding_top_png"
		},
		{
			"url": "assets/GameMenu/desktop_btn_likaifangjian2.png",
			"type": "image",
			"name": "desktop_btn_likaifangjian2_png"
		},
		{
			"url": "assets/GameMenu/desktop_btn_extens_s.png",
			"type": "image",
			"name": "desktop_btn_extens_s2_png"
		},
		{
			"url": "assets/GameMenu/desktop_btn_extens_x.png",
			"type": "image",
			"name": "desktop_btn_extens_x2_png"
		},
		{
			"url": "assets/GameMenu/desktop_btn_jiesanfangjian.png",
			"type": "image",
			"name": "desktop_btn_jiesanfangjian2_png"
		},
		{
			"url": "assets/GameMenu/desktop_btn_jiesanfangjian_d.png",
			"type": "image",
			"name": "desktop_btn_jiesanfangjian_d2_png"
		},
		{
			"url": "assets/GameMenu/desktop_btn_jiesanfangjian_p.png",
			"type": "image",
			"name": "desktop_btn_jiesanfangjian_p2_png"
		},
		{
			"url": "assets/GameMenu/desktop_btn_likaifangjian.png",
			"type": "image",
			"name": "desktop_btn_likaifangjian3_png"
		},
		{
			"url": "assets/GameMenu/desktop_btn_likaifangjian2.png",
			"type": "image",
			"name": "desktop_btn_likaifangjian22_png"
		},
		{
			"url": "assets/GameMenu/desktop_btn_likaifangjian_d.png",
			"type": "image",
			"name": "desktop_btn_likaifangjian_d2_png"
		},
		{
			"url": "assets/GameMenu/desktop_btn_likaifangjian_d_p.png",
			"type": "image",
			"name": "desktop_btn_likaifangjian_d_p2_png"
		},
		{
			"url": "assets/GameMenu/desktop_btn_shangjuhuigu.png",
			"type": "image",
			"name": "desktop_btn_shangjuhuigu2_png"
		},
		{
			"url": "assets/GameMenu/desktop_btn_shangjuhuigu_p.png",
			"type": "image",
			"name": "desktop_btn_shangjuhuigu_p2_png"
		},
		{
			"url": "assets/GameMenu/desktop_btn_youxishezhi.png",
			"type": "image",
			"name": "desktop_btn_youxishezhi2_png"
		},
		{
			"url": "assets/GameMenu/desktop_btn_youxishezhi_p.png",
			"type": "image",
			"name": "desktop_btn_youxishezhi_p2_png"
		},
		{
			"url": "assets/GameMenu/desktop_img_diban.png",
			"type": "image",
			"name": "desktop_img_diban2_png"
		},
		{
			"url": "assets/GameMenu/set_btn_slliding.png",
			"type": "image",
			"name": "set_btn_slliding2_png"
		},
		{
			"url": "assets/GameMenu/set_btn_voice_off.png",
			"type": "image",
			"name": "set_btn_voice_off2_png"
		},
		{
			"url": "assets/GameMenu/set_btn_voice_on.png",
			"type": "image",
			"name": "set_btn_voice_on2_png"
		},
		{
			"url": "assets/GameMenu/set_slliding_bottom.png",
			"type": "image",
			"name": "set_slliding_bottom2_png"
		},
		{
			"url": "assets/GameMenu/set_slliding_top.png",
			"type": "image",
			"name": "set_slliding_top2_png"
		},
		{
			"url": "assets/TeaHouse/NiuNiuView670.png",
			"type": "image",
			"name": "NiuNiuView670_png"
		},
		{
			"url": "assets/TeaHouse/Tex_BgChalou2.png",
			"type": "image",
			"name": "Tex_BgChalou2_png"
		},
		{
			"url": "assets/Game/head_temp.png",
			"type": "image",
			"name": "head_temp_png"
		},
		{
			"url": "assets/Game/NiuNiuView587.png",
			"type": "image",
			"name": "NiuNiuView587_png"
		},
		{
			"url": "assets/Game/NiuNiuView591.png",
			"type": "image",
			"name": "NiuNiuView591_png"
		},
		{
			"url": "assets/Game/desktop_red_bgbtn.png",
			"type": "image",
			"name": "desktop_red_bgbtn_png"
		},
		{
			"url": "assets/Game/desktop_red_bgbtn_p.png",
			"type": "image",
			"name": "desktop_red_bgbtn_p_png"
		},
		{
			"url": "assets/Game/tuizhu_bg1.png",
			"type": "image",
			"name": "tuizhu_bg1_png"
		},
		{
			"url": "assets/Game/tuizhu_bg2.png",
			"type": "image",
			"name": "tuizhu_bg2_png"
		},
		{
			"url": "assets/Game/tuizhu_bg3.png",
			"type": "image",
			"name": "tuizhu_bg3_png"
		},
		{
			"url": "assets/Game/tuizhu_bg4.png",
			"type": "image",
			"name": "tuizhu_bg4_png"
		},
		{
			"url": "assets/Game/tuizhu_bg5.png",
			"type": "image",
			"name": "tuizhu_bg5_png"
		},
		{
			"url": "assets/TeaHouse/Tex_clubgudingdelete.png",
			"type": "image",
			"name": "Tex_clubgudingdelete_png"
		},
		{
			"url": "assets/HallPnl/hall_img_labb.png",
			"type": "image",
			"name": "hall_img_labb_png"
		},
		{
			"url": "assets/Game/head_ketuizhu.png",
			"type": "image",
			"name": "head_ketuizhu_png"
		},
		{
			"url": "assets/CardType/multi_5.png",
			"type": "image",
			"name": "multi_5_png"
		},
		{
			"url": "assets/CardType/multi_16.png",
			"type": "image",
			"name": "multi_16_png"
		},
		{
			"url": "assets/CardType/multi_20.png",
			"type": "image",
			"name": "multi_20_png"
		},
		{
			"url": "assets/CardType/multi_9.png",
			"type": "image",
			"name": "multi_9_png"
		},
		{
			"url": "assets/CardType/multi_17.png",
			"type": "image",
			"name": "multi_17_png"
		},
		{
			"url": "assets/CardType/multi_6.png",
			"type": "image",
			"name": "multi_6_png"
		},
		{
			"url": "assets/CardType/multi_15.png",
			"type": "image",
			"name": "multi_15_png"
		},
		{
			"url": "assets/CardType/multi_2.png",
			"type": "image",
			"name": "multi_2_png"
		},
		{
			"url": "assets/CardType/multi_10.png",
			"type": "image",
			"name": "multi_10_png"
		},
		{
			"url": "assets/CardType/multi_4.png",
			"type": "image",
			"name": "multi_4_png"
		},
		{
			"url": "assets/CardType/multi_8.png",
			"type": "image",
			"name": "multi_8_png"
		},
		{
			"url": "assets/CardType/multi_3.png",
			"type": "image",
			"name": "multi_3_png"
		},
		{
			"url": "assets/CardType/multi_11.png",
			"type": "image",
			"name": "multi_11_png"
		},
		{
			"url": "assets/CardType/multi_19.png",
			"type": "image",
			"name": "multi_19_png"
		},
		{
			"url": "assets/CardType/multi_13.png",
			"type": "image",
			"name": "multi_13_png"
		},
		{
			"url": "assets/CardType/multi_14.png",
			"type": "image",
			"name": "multi_14_png"
		},
		{
			"url": "assets/CardType/multi_7.png",
			"type": "image",
			"name": "multi_7_png"
		},
		{
			"url": "assets/CardType/multi_12.png",
			"type": "image",
			"name": "multi_12_png"
		},
		{
			"url": "assets/CardType/multi_18.png",
			"type": "image",
			"name": "multi_18_png"
		},
		{
			"url": "assets/CardType/multi_1.png",
			"type": "image",
			"name": "multi_1_png"
		},
		{
			"url": "assets/Game/NiuNiuView682.png",
			"type": "image",
			"name": "NiuNiuView682_png"
		},
		{
			"url": "assets/Game/NiuNiuView665.png",
			"type": "image",
			"name": "NiuNiuView665_png"
		},
		{
			"url": "assets/HallPnl/yonghuxieyi.png",
			"type": "image",
			"name": "yonghuxieyi_png"
		},
		{
			"url": "assets/TeaHouse/Tex_titlerank.png",
			"type": "image",
			"name": "Tex_titlerank_png"
		},
		{
			"url": "assets/Game/NiuNiuView677.png",
			"type": "image",
			"name": "NiuNiuView677_png"
		},
		{
			"url": "assets/Sound/Swipe.mp3",
			"type": "sound",
			"name": "Swipe_mp3"
		},
		{
			"url": "assets/Sound/bg0.mp3",
			"type": "sound",
			"name": "bg0_mp3"
		},
		{
			"url": "assets/Sound/bg1.mp3",
			"type": "sound",
			"name": "bg1_mp3"
		},
		{
			"url": "assets/Sound/game_bet.mp3",
			"type": "sound",
			"name": "game_bet_mp3"
		},
		{
			"url": "assets/Sound/game_bet2.mp3",
			"type": "sound",
			"name": "game_bet2_mp3"
		},
		{
			"url": "assets/Sound/game_di.mp3",
			"type": "sound",
			"name": "game_di_mp3"
		},
		{
			"url": "assets/Sound/game_fapai.mp3",
			"type": "sound",
			"name": "game_fapai_mp3"
		},
		{
			"url": "assets/Sound/game_lost.mp3",
			"type": "sound",
			"name": "game_lost_mp3"
		},
		{
			"url": "assets/Sound/game_outline.mp3",
			"type": "sound",
			"name": "game_outline_mp3"
		},
		{
			"url": "assets/Sound/game_pushbet.mp3",
			"type": "sound",
			"name": "game_pushbet_mp3"
		},
		{
			"url": "assets/Sound/game_sit.mp3",
			"type": "sound",
			"name": "game_sit_mp3"
		},
		{
			"url": "assets/Sound/game_start.mp3",
			"type": "sound",
			"name": "game_start_mp3"
		},
		{
			"url": "assets/Sound/game_win.mp3",
			"type": "sound",
			"name": "game_win_mp3"
		},
		{
			"url": "assets/Sound/mf_beer.mp3",
			"type": "sound",
			"name": "mf_beer_mp3"
		},
		{
			"url": "assets/Sound/mf_bomb.mp3",
			"type": "sound",
			"name": "mf_bomb_mp3"
		},
		{
			"url": "assets/Sound/mf_dog.mp3",
			"type": "sound",
			"name": "mf_dog_mp3"
		},
		{
			"url": "assets/Sound/mf_hand.mp3",
			"type": "sound",
			"name": "mf_hand_mp3"
		},
		{
			"url": "assets/Sound/mf_meigui.mp3",
			"type": "sound",
			"name": "mf_meigui_mp3"
		},
		{
			"url": "assets/Sound/mf_tomato.mp3",
			"type": "sound",
			"name": "mf_tomato_mp3"
		},
		{
			"url": "assets/Sound/mf_water.mp3",
			"type": "sound",
			"name": "mf_water_mp3"
		},
		{
			"url": "assets/Sound/mf_zhuaji.mp3",
			"type": "sound",
			"name": "mf_zhuaji_mp3"
		},
		{
			"url": "assets/Sound/nan_niu0.mp3",
			"type": "sound",
			"name": "nan_niu0_mp3"
		},
		{
			"url": "assets/Sound/nan_niu1.mp3",
			"type": "sound",
			"name": "nan_niu1_mp3"
		},
		{
			"url": "assets/Sound/nan_niu10.mp3",
			"type": "sound",
			"name": "nan_niu10_mp3"
		},
		{
			"url": "assets/Sound/nan_niu13.mp3",
			"type": "sound",
			"name": "nan_niu13_mp3"
		},
		{
			"url": "assets/Sound/nan_niu15.mp3",
			"type": "sound",
			"name": "nan_niu15_mp3"
		},
		{
			"url": "assets/Sound/nan_niu2.mp3",
			"type": "sound",
			"name": "nan_niu2_mp3"
		},
		{
			"url": "assets/Sound/nan_niu20.mp3",
			"type": "sound",
			"name": "nan_niu20_mp3"
		},
		{
			"url": "assets/Sound/nan_niu3.mp3",
			"type": "sound",
			"name": "nan_niu3_mp3"
		},
		{
			"url": "assets/Sound/nan_niu30.mp3",
			"type": "sound",
			"name": "nan_niu30_mp3"
		},
		{
			"url": "assets/Sound/nan_niu4.mp3",
			"type": "sound",
			"name": "nan_niu4_mp3"
		},
		{
			"url": "assets/Sound/nan_niu40.mp3",
			"type": "sound",
			"name": "nan_niu40_mp3"
		},
		{
			"url": "assets/Sound/nan_niu5.mp3",
			"type": "sound",
			"name": "nan_niu5_mp3"
		},
		{
			"url": "assets/Sound/nan_niu50.mp3",
			"type": "sound",
			"name": "nan_niu50_mp3"
		},
		{
			"url": "assets/Sound/nan_niu6.mp3",
			"type": "sound",
			"name": "nan_niu6_mp3"
		},
		{
			"url": "assets/Sound/nan_niu60.mp3",
			"type": "sound",
			"name": "nan_niu60_mp3"
		},
		{
			"url": "assets/Sound/nan_niu7.mp3",
			"type": "sound",
			"name": "nan_niu7_mp3"
		},
		{
			"url": "assets/Sound/nan_niu70.mp3",
			"type": "sound",
			"name": "nan_niu70_mp3"
		},
		{
			"url": "assets/Sound/nan_niu8.mp3",
			"type": "sound",
			"name": "nan_niu8_mp3"
		},
		{
			"url": "assets/Sound/nan_niu80.mp3",
			"type": "sound",
			"name": "nan_niu80_mp3"
		},
		{
			"url": "assets/Sound/nan_niu9.mp3",
			"type": "sound",
			"name": "nan_niu9_mp3"
		},
		{
			"url": "assets/Sound/niu_80.mp3",
			"type": "sound",
			"name": "niu_80_mp3"
		},
		{
			"url": "assets/Sound/nv_niu0.mp3",
			"type": "sound",
			"name": "nv_niu0_mp3"
		},
		{
			"url": "assets/Sound/nv_niu1.mp3",
			"type": "sound",
			"name": "nv_niu1_mp3"
		},
		{
			"url": "assets/Sound/nv_niu10.mp3",
			"type": "sound",
			"name": "nv_niu10_mp3"
		},
		{
			"url": "assets/Sound/nv_niu13.mp3",
			"type": "sound",
			"name": "nv_niu13_mp3"
		},
		{
			"url": "assets/Sound/nv_niu15.mp3",
			"type": "sound",
			"name": "nv_niu15_mp3"
		},
		{
			"url": "assets/Sound/nv_niu2.mp3",
			"type": "sound",
			"name": "nv_niu2_mp3"
		},
		{
			"url": "assets/Sound/nv_niu20.mp3",
			"type": "sound",
			"name": "nv_niu20_mp3"
		},
		{
			"url": "assets/Sound/nv_niu3.mp3",
			"type": "sound",
			"name": "nv_niu3_mp3"
		},
		{
			"url": "assets/Sound/nv_niu30.mp3",
			"type": "sound",
			"name": "nv_niu30_mp3"
		},
		{
			"url": "assets/Sound/nv_niu4.mp3",
			"type": "sound",
			"name": "nv_niu4_mp3"
		},
		{
			"url": "assets/Sound/nv_niu40.mp3",
			"type": "sound",
			"name": "nv_niu40_mp3"
		},
		{
			"url": "assets/Sound/nv_niu5.mp3",
			"type": "sound",
			"name": "nv_niu5_mp3"
		},
		{
			"url": "assets/Sound/nv_niu50.mp3",
			"type": "sound",
			"name": "nv_niu50_mp3"
		},
		{
			"url": "assets/Sound/nv_niu6.mp3",
			"type": "sound",
			"name": "nv_niu6_mp3"
		},
		{
			"url": "assets/Sound/nv_niu60.mp3",
			"type": "sound",
			"name": "nv_niu60_mp3"
		},
		{
			"url": "assets/Sound/nv_niu7.mp3",
			"type": "sound",
			"name": "nv_niu7_mp3"
		},
		{
			"url": "assets/Sound/nv_niu70.mp3",
			"type": "sound",
			"name": "nv_niu70_mp3"
		},
		{
			"url": "assets/Sound/nv_niu8.mp3",
			"type": "sound",
			"name": "nv_niu8_mp3"
		},
		{
			"url": "assets/Sound/nv_niu80.mp3",
			"type": "sound",
			"name": "nv_niu80_mp3"
		},
		{
			"url": "assets/Sound/nv_niu9.mp3",
			"type": "sound",
			"name": "nv_niu9_mp3"
		},
		{
			"url": "assets/Sound/random_banker.mp3",
			"type": "sound",
			"name": "random_banker_mp3"
		},
		{
			"url": "assets/Sound/sfx_button_click.mp3",
			"type": "sound",
			"name": "sfx_button_click_mp3"
		},
		{
			"url": "assets/Sound/sfx_button_sure.mp3",
			"type": "sound",
			"name": "sfx_button_sure_mp3"
		},
		{
			"url": "assets/Sound/sfx_coin_down.mp3",
			"type": "sound",
			"name": "sfx_coin_down_mp3"
		},
		{
			"url": "assets/Sound/sfx_window_close.mp3",
			"type": "sound",
			"name": "sfx_window_close_mp3"
		},
		{
			"url": "assets/Sound/sfx_window_open.mp3",
			"type": "sound",
			"name": "sfx_window_open_mp3"
		},
		{
			"url": "assets/Sound/voice_0_0.mp3",
			"type": "sound",
			"name": "voice_0_0_mp3"
		},
		{
			"url": "assets/Sound/voice_0_1.mp3",
			"type": "sound",
			"name": "voice_0_1_mp3"
		},
		{
			"url": "assets/Sound/voice_1_0.mp3",
			"type": "sound",
			"name": "voice_1_0_mp3"
		},
		{
			"url": "assets/Sound/voice_1_1.mp3",
			"type": "sound",
			"name": "voice_1_1_mp3"
		},
		{
			"url": "assets/Sound/voice_2_0.mp3",
			"type": "sound",
			"name": "voice_2_0_mp3"
		},
		{
			"url": "assets/Sound/voice_2_1.mp3",
			"type": "sound",
			"name": "voice_2_1_mp3"
		},
		{
			"url": "assets/Sound/voice_3_0.mp3",
			"type": "sound",
			"name": "voice_3_0_mp3"
		},
		{
			"url": "assets/Sound/voice_3_1.mp3",
			"type": "sound",
			"name": "voice_3_1_mp3"
		},
		{
			"url": "assets/Sound/voice_4_0.mp3",
			"type": "sound",
			"name": "voice_4_0_mp3"
		},
		{
			"url": "assets/Sound/voice_4_1.mp3",
			"type": "sound",
			"name": "voice_4_1_mp3"
		},
		{
			"url": "assets/Sound/voice_5_0.mp3",
			"type": "sound",
			"name": "voice_5_0_mp3"
		},
		{
			"url": "assets/Sound/voice_5_1.mp3",
			"type": "sound",
			"name": "voice_5_1_mp3"
		},
		{
			"url": "assets/Sound/voice_6_0.mp3",
			"type": "sound",
			"name": "voice_6_0_mp3"
		},
		{
			"url": "assets/Sound/voice_6_1.mp3",
			"type": "sound",
			"name": "voice_6_1_mp3"
		},
		{
			"url": "assets/Sound/voice_7_0.mp3",
			"type": "sound",
			"name": "voice_7_0_mp3"
		},
		{
			"url": "assets/Sound/voice_7_1.mp3",
			"type": "sound",
			"name": "voice_7_1_mp3"
		},
		{
			"url": "assets/Sound/voice_8_0.mp3",
			"type": "sound",
			"name": "voice_8_0_mp3"
		},
		{
			"url": "assets/Sound/voice_8_1.mp3",
			"type": "sound",
			"name": "voice_8_1_mp3"
		},
		{
			"url": "assets/Sound/voice_9_0.mp3",
			"type": "sound",
			"name": "voice_9_0_mp3"
		},
		{
			"url": "assets/Sound/voice_9_1.mp3",
			"type": "sound",
			"name": "voice_9_1_mp3"
		},
		{
			"url": "assets/TeaHouse/state_in.png",
			"type": "image",
			"name": "state_in_png"
		},
		{
			"url": "assets/TeaHouse/state_wait.png",
			"type": "image",
			"name": "state_wait_png"
		},
		{
			"url": "assets/Game/prepare.png",
			"type": "image",
			"name": "prepare_png"
		},
		{
			"url": "assets/HallPnl/NiuNiuView669.png",
			"type": "image",
			"name": "NiuNiuView669_png"
		},
		{
			"url": "assets/HallPnl/NiuNiuView669.png",
			"type": "image",
			"name": "NiuNiuView6692_png"
		},
		{
			"url": "assets/Game/cancel_trustee_n.png",
			"type": "image",
			"name": "cancel_trustee_n_png"
		},
		{
			"url": "assets/MakeCard/BgOrigin_b.png",
			"type": "image",
			"name": "BgOrigin_b_png"
		},
		{
			"url": "assets/MakeCard/Black10_b.png",
			"type": "image",
			"name": "Black10_b_png"
		},
		{
			"url": "assets/MakeCard/Black11_b.png",
			"type": "image",
			"name": "Black11_b_png"
		},
		{
			"url": "assets/MakeCard/Black12_b.png",
			"type": "image",
			"name": "Black12_b_png"
		},
		{
			"url": "assets/MakeCard/Black13_b.png",
			"type": "image",
			"name": "Black13_b_png"
		},
		{
			"url": "assets/MakeCard/Black1_b.png",
			"type": "image",
			"name": "Black1_b_png"
		},
		{
			"url": "assets/MakeCard/Black2_b.png",
			"type": "image",
			"name": "Black2_b_png"
		},
		{
			"url": "assets/MakeCard/Black3_b.png",
			"type": "image",
			"name": "Black3_b_png"
		},
		{
			"url": "assets/MakeCard/Black4_b.png",
			"type": "image",
			"name": "Black4_b_png"
		},
		{
			"url": "assets/MakeCard/Black5_b.png",
			"type": "image",
			"name": "Black5_b_png"
		},
		{
			"url": "assets/MakeCard/Black6_b.png",
			"type": "image",
			"name": "Black6_b_png"
		},
		{
			"url": "assets/MakeCard/Black7_b.png",
			"type": "image",
			"name": "Black7_b_png"
		},
		{
			"url": "assets/MakeCard/Black8_b.png",
			"type": "image",
			"name": "Black8_b_png"
		},
		{
			"url": "assets/MakeCard/Black9_b.png",
			"type": "image",
			"name": "Black9_b_png"
		},
		{
			"url": "assets/MakeCard/Flower10_b.png",
			"type": "image",
			"name": "Flower10_b_png"
		},
		{
			"url": "assets/MakeCard/Flower11_b.png",
			"type": "image",
			"name": "Flower11_b_png"
		},
		{
			"url": "assets/MakeCard/Flower12_b.png",
			"type": "image",
			"name": "Flower12_b_png"
		},
		{
			"url": "assets/MakeCard/Flower13_b.png",
			"type": "image",
			"name": "Flower13_b_png"
		},
		{
			"url": "assets/MakeCard/Flower1_b.png",
			"type": "image",
			"name": "Flower1_b_png"
		},
		{
			"url": "assets/MakeCard/Flower2_b.png",
			"type": "image",
			"name": "Flower2_b_png"
		},
		{
			"url": "assets/MakeCard/Flower3_b.png",
			"type": "image",
			"name": "Flower3_b_png"
		},
		{
			"url": "assets/MakeCard/Flower4_b.png",
			"type": "image",
			"name": "Flower4_b_png"
		},
		{
			"url": "assets/MakeCard/Flower5_b.png",
			"type": "image",
			"name": "Flower5_b_png"
		},
		{
			"url": "assets/MakeCard/Flower6_b.png",
			"type": "image",
			"name": "Flower6_b_png"
		},
		{
			"url": "assets/MakeCard/Flower7_b.png",
			"type": "image",
			"name": "Flower7_b_png"
		},
		{
			"url": "assets/MakeCard/Flower8_b.png",
			"type": "image",
			"name": "Flower8_b_png"
		},
		{
			"url": "assets/MakeCard/Flower9_b.png",
			"type": "image",
			"name": "Flower9_b_png"
		},
		{
			"url": "assets/MakeCard/Red10_b.png",
			"type": "image",
			"name": "Red10_b_png"
		},
		{
			"url": "assets/MakeCard/Red11_b.png",
			"type": "image",
			"name": "Red11_b_png"
		},
		{
			"url": "assets/MakeCard/Red12_b.png",
			"type": "image",
			"name": "Red12_b_png"
		},
		{
			"url": "assets/MakeCard/Red13_b.png",
			"type": "image",
			"name": "Red13_b_png"
		},
		{
			"url": "assets/MakeCard/Red1_b.png",
			"type": "image",
			"name": "Red1_b_png"
		},
		{
			"url": "assets/MakeCard/Red2_b.png",
			"type": "image",
			"name": "Red2_b_png"
		},
		{
			"url": "assets/MakeCard/Red3_b.png",
			"type": "image",
			"name": "Red3_b_png"
		},
		{
			"url": "assets/MakeCard/Red4_b.png",
			"type": "image",
			"name": "Red4_b_png"
		},
		{
			"url": "assets/MakeCard/Red5_b.png",
			"type": "image",
			"name": "Red5_b_png"
		},
		{
			"url": "assets/MakeCard/Red6_b.png",
			"type": "image",
			"name": "Red6_b_png"
		},
		{
			"url": "assets/MakeCard/Red7_b.png",
			"type": "image",
			"name": "Red7_b_png"
		},
		{
			"url": "assets/MakeCard/Red8_b.png",
			"type": "image",
			"name": "Red8_b_png"
		},
		{
			"url": "assets/MakeCard/Red9_b.png",
			"type": "image",
			"name": "Red9_b_png"
		},
		{
			"url": "assets/MakeCard/Square10_b.png",
			"type": "image",
			"name": "Square10_b_png"
		},
		{
			"url": "assets/MakeCard/Square11_b.png",
			"type": "image",
			"name": "Square11_b_png"
		},
		{
			"url": "assets/MakeCard/Square12_b.png",
			"type": "image",
			"name": "Square12_b_png"
		},
		{
			"url": "assets/MakeCard/Square13_b.png",
			"type": "image",
			"name": "Square13_b_png"
		},
		{
			"url": "assets/MakeCard/Square1_b.png",
			"type": "image",
			"name": "Square1_b_png"
		},
		{
			"url": "assets/MakeCard/Square2_b.png",
			"type": "image",
			"name": "Square2_b_png"
		},
		{
			"url": "assets/MakeCard/Square3_b.png",
			"type": "image",
			"name": "Square3_b_png"
		},
		{
			"url": "assets/MakeCard/Square4_b.png",
			"type": "image",
			"name": "Square4_b_png"
		},
		{
			"url": "assets/MakeCard/Square5_b.png",
			"type": "image",
			"name": "Square5_b_png"
		},
		{
			"url": "assets/MakeCard/Square6_b.png",
			"type": "image",
			"name": "Square6_b_png"
		},
		{
			"url": "assets/MakeCard/Square7_b.png",
			"type": "image",
			"name": "Square7_b_png"
		},
		{
			"url": "assets/MakeCard/Square8_b.png",
			"type": "image",
			"name": "Square8_b_png"
		},
		{
			"url": "assets/MakeCard/Square9_b.png",
			"type": "image",
			"name": "Square9_b_png"
		},
		{
			"url": "assets/Game/btnLiiCuo.png",
			"type": "image",
			"name": "btnLiiCuo_png"
		},
		{
			"url": "assets/Game/q1_black.png",
			"type": "image",
			"name": "q1_black_png"
		},
		{
			"url": "assets/Game/q2_black.png",
			"type": "image",
			"name": "q2_black_png"
		},
		{
			"url": "assets/Game/q3_black.png",
			"type": "image",
			"name": "q3_black_png"
		},
		{
			"url": "assets/Game/q4_black.png",
			"type": "image",
			"name": "q4_black_png"
		},
		{
			"url": "assets/Game/btnLiiCuo.png",
			"type": "image",
			"name": "btnLiiCuo2_png"
		},
		{
			"url": "assets/Game/q1_black.png",
			"type": "image",
			"name": "q1_black2_png"
		},
		{
			"url": "assets/Game/q2_black.png",
			"type": "image",
			"name": "q2_black2_png"
		},
		{
			"url": "assets/Game/q3_black.png",
			"type": "image",
			"name": "q3_black2_png"
		},
		{
			"url": "assets/Game/q4_black.png",
			"type": "image",
			"name": "q4_black2_png"
		},
		{
			"url": "assets/MakeCard/BgOrigin_b.png",
			"type": "image",
			"name": "BgOrigin_b2_png"
		},
		{
			"url": "assets/MakeCard/Black10_b.png",
			"type": "image",
			"name": "Black10_b2_png"
		},
		{
			"url": "assets/MakeCard/Black11_b.png",
			"type": "image",
			"name": "Black11_b2_png"
		},
		{
			"url": "assets/MakeCard/Black12_b.png",
			"type": "image",
			"name": "Black12_b2_png"
		},
		{
			"url": "assets/MakeCard/Black13_b.png",
			"type": "image",
			"name": "Black13_b2_png"
		},
		{
			"url": "assets/MakeCard/Black1_b.png",
			"type": "image",
			"name": "Black1_b2_png"
		},
		{
			"url": "assets/MakeCard/Black2_b.png",
			"type": "image",
			"name": "Black2_b2_png"
		},
		{
			"url": "assets/MakeCard/Black3_b.png",
			"type": "image",
			"name": "Black3_b2_png"
		},
		{
			"url": "assets/MakeCard/Black4_b.png",
			"type": "image",
			"name": "Black4_b2_png"
		},
		{
			"url": "assets/MakeCard/Black5_b.png",
			"type": "image",
			"name": "Black5_b2_png"
		},
		{
			"url": "assets/MakeCard/Black6_b.png",
			"type": "image",
			"name": "Black6_b2_png"
		},
		{
			"url": "assets/MakeCard/Black7_b.png",
			"type": "image",
			"name": "Black7_b2_png"
		},
		{
			"url": "assets/MakeCard/Black8_b.png",
			"type": "image",
			"name": "Black8_b2_png"
		},
		{
			"url": "assets/MakeCard/Black9_b.png",
			"type": "image",
			"name": "Black9_b2_png"
		},
		{
			"url": "assets/MakeCard/Flower10_b.png",
			"type": "image",
			"name": "Flower10_b2_png"
		},
		{
			"url": "assets/MakeCard/Flower11_b.png",
			"type": "image",
			"name": "Flower11_b2_png"
		},
		{
			"url": "assets/MakeCard/Flower12_b.png",
			"type": "image",
			"name": "Flower12_b2_png"
		},
		{
			"url": "assets/MakeCard/Flower13_b.png",
			"type": "image",
			"name": "Flower13_b2_png"
		},
		{
			"url": "assets/MakeCard/Flower1_b.png",
			"type": "image",
			"name": "Flower1_b2_png"
		},
		{
			"url": "assets/MakeCard/Flower2_b.png",
			"type": "image",
			"name": "Flower2_b2_png"
		},
		{
			"url": "assets/MakeCard/Flower3_b.png",
			"type": "image",
			"name": "Flower3_b2_png"
		},
		{
			"url": "assets/MakeCard/Flower4_b.png",
			"type": "image",
			"name": "Flower4_b2_png"
		},
		{
			"url": "assets/MakeCard/Flower5_b.png",
			"type": "image",
			"name": "Flower5_b2_png"
		},
		{
			"url": "assets/MakeCard/Flower6_b.png",
			"type": "image",
			"name": "Flower6_b2_png"
		},
		{
			"url": "assets/MakeCard/Flower7_b.png",
			"type": "image",
			"name": "Flower7_b2_png"
		},
		{
			"url": "assets/MakeCard/Flower8_b.png",
			"type": "image",
			"name": "Flower8_b2_png"
		},
		{
			"url": "assets/MakeCard/Flower9_b.png",
			"type": "image",
			"name": "Flower9_b2_png"
		},
		{
			"url": "assets/MakeCard/Red10_b.png",
			"type": "image",
			"name": "Red10_b2_png"
		},
		{
			"url": "assets/MakeCard/Red11_b.png",
			"type": "image",
			"name": "Red11_b2_png"
		},
		{
			"url": "assets/MakeCard/Red12_b.png",
			"type": "image",
			"name": "Red12_b2_png"
		},
		{
			"url": "assets/MakeCard/Red13_b.png",
			"type": "image",
			"name": "Red13_b2_png"
		},
		{
			"url": "assets/MakeCard/Red1_b.png",
			"type": "image",
			"name": "Red1_b2_png"
		},
		{
			"url": "assets/MakeCard/Red2_b.png",
			"type": "image",
			"name": "Red2_b2_png"
		},
		{
			"url": "assets/MakeCard/Red3_b.png",
			"type": "image",
			"name": "Red3_b2_png"
		},
		{
			"url": "assets/MakeCard/Red4_b.png",
			"type": "image",
			"name": "Red4_b2_png"
		},
		{
			"url": "assets/MakeCard/Red5_b.png",
			"type": "image",
			"name": "Red5_b2_png"
		},
		{
			"url": "assets/MakeCard/Red6_b.png",
			"type": "image",
			"name": "Red6_b2_png"
		},
		{
			"url": "assets/MakeCard/Red7_b.png",
			"type": "image",
			"name": "Red7_b2_png"
		},
		{
			"url": "assets/MakeCard/Red8_b.png",
			"type": "image",
			"name": "Red8_b2_png"
		},
		{
			"url": "assets/MakeCard/Red9_b.png",
			"type": "image",
			"name": "Red9_b2_png"
		},
		{
			"url": "assets/MakeCard/Square10_b.png",
			"type": "image",
			"name": "Square10_b2_png"
		},
		{
			"url": "assets/MakeCard/Square11_b.png",
			"type": "image",
			"name": "Square11_b2_png"
		},
		{
			"url": "assets/MakeCard/Square12_b.png",
			"type": "image",
			"name": "Square12_b2_png"
		},
		{
			"url": "assets/MakeCard/Square13_b.png",
			"type": "image",
			"name": "Square13_b2_png"
		},
		{
			"url": "assets/MakeCard/Square1_b.png",
			"type": "image",
			"name": "Square1_b2_png"
		},
		{
			"url": "assets/MakeCard/Square2_b.png",
			"type": "image",
			"name": "Square2_b2_png"
		},
		{
			"url": "assets/MakeCard/Square3_b.png",
			"type": "image",
			"name": "Square3_b2_png"
		},
		{
			"url": "assets/MakeCard/Square4_b.png",
			"type": "image",
			"name": "Square4_b2_png"
		},
		{
			"url": "assets/MakeCard/Square5_b.png",
			"type": "image",
			"name": "Square5_b2_png"
		},
		{
			"url": "assets/MakeCard/Square6_b.png",
			"type": "image",
			"name": "Square6_b2_png"
		},
		{
			"url": "assets/MakeCard/Square7_b.png",
			"type": "image",
			"name": "Square7_b2_png"
		},
		{
			"url": "assets/MakeCard/Square8_b.png",
			"type": "image",
			"name": "Square8_b2_png"
		},
		{
			"url": "assets/MakeCard/Square9_b.png",
			"type": "image",
			"name": "Square9_b2_png"
		},
		{
			"url": "assets/Game/NiuNiuView644.png",
			"type": "image",
			"name": "NiuNiuView644_png"
		},
		{
			"url": "assets/Game/NiuNiuView644.png",
			"type": "image",
			"name": "NiuNiuView6442_png"
		},
		{
			"url": "assets/TeaHouse/charge.png",
			"type": "image",
			"name": "charge_png"
		},
		{
			"url": "assets/TeaHouse/rmb500.png",
			"type": "image",
			"name": "rmb500_png"
		},
		{
			"url": "assets/TeaHouse/rmb100.png",
			"type": "image",
			"name": "rmb100_png"
		},
		{
			"url": "assets/TeaHouse/rmb200.png",
			"type": "image",
			"name": "rmb200_png"
		},
		{
			"url": "assets/TeaHouse/rmb1000.png",
			"type": "image",
			"name": "rmb1000_png"
		},
		{
			"url": "assets/TeaHouse/Tex_btnreduce.png",
			"type": "image",
			"name": "Tex_btnreduce_png"
		},
		{
			"url": "assets/TeaHouse/chongshu.png",
			"type": "image",
			"name": "chongshu_png"
		},
		{
			"url": "assets/TeaHouse/NiuNiuView239.png",
			"type": "image",
			"name": "NiuNiuView2392_png"
		},
		{
			"url": "assets/TeaHouse/Tex_btn0.png",
			"type": "image",
			"name": "Tex_btn0_png"
		},
		{
			"url": "assets/TeaHouse/Tex_btn1.png",
			"type": "image",
			"name": "Tex_btn1_png"
		},
		{
			"url": "assets/TeaHouse/Tex_btn2.png",
			"type": "image",
			"name": "Tex_btn2_png"
		},
		{
			"url": "assets/TeaHouse/Tex_btn3.png",
			"type": "image",
			"name": "Tex_btn3_png"
		},
		{
			"url": "assets/TeaHouse/Tex_btn4.png",
			"type": "image",
			"name": "Tex_btn4_png"
		},
		{
			"url": "assets/TeaHouse/Tex_btn5.png",
			"type": "image",
			"name": "Tex_btn5_png"
		},
		{
			"url": "assets/TeaHouse/Tex_btn6.png",
			"type": "image",
			"name": "Tex_btn6_png"
		},
		{
			"url": "assets/TeaHouse/Tex_btn7.png",
			"type": "image",
			"name": "Tex_btn7_png"
		},
		{
			"url": "assets/TeaHouse/Tex_btn8.png",
			"type": "image",
			"name": "Tex_btn8_png"
		},
		{
			"url": "assets/TeaHouse/Tex_btn9.png",
			"type": "image",
			"name": "Tex_btn9_png"
		},
		{
			"url": "assets/TeaHouse/Tex_btnclear.png",
			"type": "image",
			"name": "Tex_btnclear_png"
		},
		{
			"url": "assets/LoginPnl/bar2.png",
			"type": "image",
			"name": "bar22_png"
		},
		{
			"url": "assets/LoginPnl/bar1.png",
			"type": "image",
			"name": "bar12_png"
		},
		{
			"name": "down_png",
			"type": "image",
			"url": "assets/HallPnl/down.png"
		}
	]
}